<?xml version="1.0" encoding="UTF-8"?>
<svg width="42px" height="36px" viewBox="0 0 42 36" version="1.1" xmlns="http://www.w3.org/2000/svg" xmlns:xlink="http://www.w3.org/1999/xlink">
    <!-- Generator: sketchtool 58 (101010) - https://sketch.com -->
    <title>0A9E14E0-9FFB-44F9-89CA-0398B946AFD0</title>
    <desc>Created with sketchtool.</desc>
    <defs>
        <polygon id="path-1" points="0.766877542 0.5681 20.41 0.5681 20.41 19.8309665 0.766877542 19.8309665"></polygon>
        <polygon id="path-3" points="0.736564935 0.2493 10.945493 0.2493 10.945493 26 0.736564935 26"></polygon>
    </defs>
    <g id="Grid-Templates" stroke="none" stroke-width="1" fill="none" fill-rule="evenodd">
        <g id="Goals-Article" transform="translate(-928.000000, -3420.000000)">
            <g id="Subhed-4" transform="translate(534.000000, 3289.000000)">
                <g id="Quote-Carousel" transform="translate(106.000000, 129.000000)">
                    <g id="start-quote" transform="translate(288.000000, 0.998629)">
                        <path d="M14.3103,2.9395 L14.3103,2.9395 C14.9143,2.9825 15.5273,2.9865 16.1303,3.0545 C16.1033,3.1145 16.0873,3.1785 16.0873,3.2445 L16.0873,3.8285 C16.0873,3.9195 16.1073,4.0075 16.1433,4.0855 C16.1753,4.8395 16.2043,5.5935 16.2313,6.3465 C16.2763,7.5735 16.3113,8.7995 16.3463,10.0255 C16.3623,10.5955 16.3743,11.1655 16.3893,11.7345 L16.4073,12.4875 C16.4113,12.6435 16.4153,12.7985 16.4183,12.9555 C16.4263,13.2625 16.4153,13.5705 16.4603,13.8755 C16.4883,14.0535 16.6203,14.1915 16.7823,14.2475 C16.7943,14.5375 16.8083,14.8265 16.8213,15.1155 C16.8343,15.4225 16.8473,15.7305 16.8603,16.0385 C16.8553,16.0375 16.8503,16.0365 16.8453,16.0365 C16.5383,15.9755 16.2293,15.9055 15.9293,15.8155 C15.5283,15.6945 15.1433,15.5005 14.7163,15.4845 C14.3153,15.4705 13.9213,15.5685 13.5323,15.6505 C13.2563,15.7095 12.9813,15.7685 12.7053,15.8275 C12.1993,15.9335 11.6933,16.0405 11.1883,16.1445 C10.5643,16.2725 9.9393,16.3965 9.3133,16.5175 C8.7943,16.6195 8.2673,16.6885 7.7453,16.7695 C7.5023,16.7935 7.2613,16.8145 7.0193,16.8385 C6.7843,16.8615 6.5453,16.8955 6.3093,16.9055 C5.7743,16.9305 5.2383,16.9665 4.7023,16.9765 C4.1223,16.9865 3.5423,16.9975 2.9633,17.0025 C2.7083,17.0045 2.4553,17.0075 2.2013,17.0075 C2.0153,17.0085 1.8303,17.0095 1.6443,17.0095 C1.4273,17.0105 1.2113,17.0125 0.9963,16.9885 C0.9873,16.7655 0.9923,16.5415 0.9953,16.3185 C0.9983,16.0545 1.0043,15.7925 1.0113,15.5285 C1.0243,15.0395 1.0413,14.5495 1.0623,14.0605 C1.1093,12.9315 1.1643,11.8025 1.2213,10.6755 C1.2793,9.5375 1.3493,8.4005 1.4143,7.2645 C1.4433,6.7595 1.4733,6.2545 1.5073,5.7515 C1.5643,4.9235 1.5893,4.0835 1.7323,3.2645 C1.7793,3.0435 1.8353,2.8265 1.9203,2.6175 C1.9583,2.5445 1.9983,2.4745 2.0453,2.4075 C2.0883,2.3975 2.1323,2.3915 2.1763,2.3845 C2.2143,2.3815 2.2523,2.3785 2.2903,2.3775 C2.8723,2.3335 3.4533,2.3005 4.0343,2.2735 C4.6043,2.2475 5.1713,2.2515 5.7413,2.2635 C6.9003,2.2865 8.0573,2.3735 9.2133,2.4635 C10.3223,2.5505 11.4253,2.6875 12.5323,2.7975 C13.1243,2.8565 13.7163,2.8975 14.3103,2.9395 M6.6903,1.2625 L6.6903,1.2625 C6.1983,1.2385 5.7043,1.2165 5.2103,1.2165 C5.1833,1.2165 5.1553,1.2165 5.1273,1.2165 C4.5363,1.2205 3.9483,1.2425 3.3573,1.2765 C3.0913,1.2915 2.8263,1.3075 2.5613,1.3255 C2.2923,1.3455 2.0153,1.3465 1.7553,1.4215 C1.3763,1.5325 1.1533,1.9125 1.0063,2.2535 C0.8433,2.6275 0.7613,3.0425 0.7063,3.4455 C0.6673,3.7285 0.6333,4.0135 0.6133,4.2995 C0.5923,4.6055 0.5713,4.9115 0.5503,5.2175 C0.5153,5.7315 0.4793,6.2455 0.4493,6.7605 C0.3763,8.0235 0.3053,9.2875 0.2353,10.5515 C0.1723,11.6465 0.1233,12.7435 0.0793,13.8395 C0.0563,14.3785 0.0353,14.9175 0.0213,15.4565 C0.0123,15.7465 0.0063,16.0385 0.0023,16.3295 C0.0003,16.4625 0.0003,16.5955 0.0003,16.7295 C0.0003,16.9115 -0.0047,17.1055 0.0283,17.2845 C0.0483,17.3915 0.0803,17.4975 0.1323,17.5935 C0.1793,17.6755 0.2553,17.7835 0.3393,17.8345 C0.5223,17.9425 0.7023,17.9995 0.9133,18.0225 C1.1483,18.0475 1.3843,18.0465 1.6203,18.0455 C1.8933,18.0445 2.1673,18.0435 2.4413,18.0425 C3.0693,18.0365 3.6963,18.0285 4.3233,18.0165 C4.9173,18.0055 5.5103,17.9745 6.1043,17.9475 C6.3083,17.9385 6.5093,17.9165 6.7133,17.8975 C7.0643,17.8635 7.4163,17.8295 7.7673,17.7955 C8.0433,17.7695 8.3183,17.7185 8.5923,17.6755 C8.8553,17.6345 9.1203,17.6025 9.3803,17.5515 C9.9773,17.4365 10.5743,17.3195 11.1693,17.1965 C11.7243,17.0825 12.2783,16.9645 12.8313,16.8505 C13.0933,16.7945 13.3563,16.7385 13.6193,16.6835 C13.8853,16.6255 14.1533,16.5635 14.4233,16.5235 C14.5343,16.5165 14.6423,16.5185 14.7523,16.5305 C15.0943,16.6055 15.4123,16.7605 15.7493,16.8465 C15.9103,16.8875 16.0703,16.9245 16.2303,16.9605 C16.3163,16.9805 16.4033,17.0025 16.4903,17.0195 C16.6233,17.0445 16.7603,17.0795 16.8963,17.0885 C16.9003,17.0885 16.9043,17.0885 16.9073,17.0885 C16.9343,17.6655 16.9643,18.2405 17.0043,18.8155 C17.0123,18.9385 17.1133,19.0685 17.2103,19.1345 C17.2873,19.1855 17.3703,19.2115 17.4603,19.2155 C17.6863,19.2225 17.8933,19.0645 17.9603,18.8505 C18.0903,18.4395 18.0353,17.9945 18.0333,17.5685 C18.0323,17.3465 18.0313,17.1245 18.0293,16.9025 C18.0263,16.4395 18.0213,15.9785 18.0213,15.5155 C18.0213,15.3235 18.0103,15.1305 18.0053,14.9395 C17.9953,14.5285 17.9843,14.1185 17.9733,13.7085 C17.9613,13.2615 17.9533,12.8145 17.9333,12.3695 C17.8773,11.1135 17.8223,9.8595 17.7563,8.6065 C17.6973,7.4635 17.6343,6.3215 17.5723,5.1795 C17.5423,4.6405 17.5153,4.1015 17.4883,3.5625 C17.4813,3.4185 17.4713,3.2735 17.4613,3.1285 C17.4533,2.9815 17.4403,2.8415 17.4073,2.6985 C17.3613,2.4945 17.2343,2.3305 17.0533,2.2285 C16.8493,2.1115 16.6243,2.0755 16.3953,2.0455 C16.2153,2.0225 16.0373,2.0025 15.8563,1.9905 C15.7003,1.9795 15.5423,1.9695 15.3853,1.9605 C14.2313,1.8975 13.0793,1.8235 11.9293,1.6965 C11.3703,1.6345 10.8103,1.5715 10.2493,1.5185 C9.6253,1.4585 9.0023,1.4085 8.3773,1.3585 C7.8163,1.3145 7.2523,1.2895 6.6903,1.2625" id="Fill-1" fill="#009A27"></path>
                        <path d="M9.4282,12.4525 L9.4282,12.4525 C9.4662,12.8025 9.5042,13.1525 9.5442,13.5025 C9.5102,13.4955 9.4772,13.4885 9.4432,13.4815 L9.4372,13.0305 C9.4342,12.8375 9.4312,12.6455 9.4282,12.4525 L9.4282,12.4525 Z M7.5462,9.6335 L7.5462,9.6335 C7.6752,10.8245 7.8052,12.0155 7.9392,13.2065 C7.7532,13.1755 7.5672,13.1495 7.3802,13.1265 C7.3792,12.6465 7.3792,12.1675 7.3782,11.6875 C7.3762,10.6385 7.4052,9.5885 7.4272,8.5385 C7.4662,8.9035 7.5072,9.2695 7.5462,9.6335 L7.5462,9.6335 Z M14.0792,13.8305 L14.0792,13.8305 C14.0842,13.8725 14.0902,13.9145 14.0972,13.9565 C14.0562,14.0765 14.0122,14.1945 13.9652,14.3125 C13.9532,14.3335 13.9402,14.3545 13.9262,14.3745 C13.9152,14.3855 13.9032,14.3965 13.8902,14.4075 C13.8522,14.4305 13.8152,14.4515 13.7752,14.4705 C13.7632,14.4735 13.7522,14.4765 13.7412,14.4785 C13.6222,14.4825 13.5072,14.4705 13.3892,14.4525 C13.2292,14.4225 13.0692,14.3915 12.9112,14.3525 C12.9262,14.2655 12.9402,14.1775 12.9432,14.0895 C12.9512,13.8715 12.9382,13.6535 12.9442,13.4345 C12.9512,13.2485 12.9562,13.0605 12.9612,12.8735 C12.9982,11.6845 13.0382,10.4955 13.0992,9.3075 C13.1272,8.7535 13.1592,8.2015 13.1882,7.6475 C13.1952,7.6925 13.2032,7.7385 13.2092,7.7835 C13.3862,8.9095 13.5472,10.0375 13.7072,11.1665 C13.7902,11.7515 13.8712,12.3365 13.9532,12.9215 C13.9952,13.2245 14.0372,13.5275 14.0792,13.8305 L14.0792,13.8305 Z M11.5872,13.4265 L11.5872,13.4265 C11.6142,13.6185 11.6412,13.8105 11.6682,14.0025 C11.6672,14.0015 11.6652,14.0005 11.6622,14.0005 C11.3742,13.9245 11.0862,13.8395 10.7952,13.7725 C10.7942,13.6995 10.7932,13.6265 10.7922,13.5535 C10.7882,13.0995 10.7842,12.6455 10.7782,12.1915 C10.7712,11.4245 10.7902,10.6555 10.7962,9.8875 C10.8022,9.1305 10.8152,8.3745 10.8302,7.6175 C10.9742,8.7755 11.1222,9.9335 11.2712,11.0915 C11.3432,11.6495 11.4192,12.2055 11.4952,12.7615 C11.5252,12.9835 11.5552,13.2045 11.5872,13.4265 L11.5872,13.4265 Z M2.8762,5.2995 L2.8762,5.2995 C2.9402,5.8875 3.0012,6.4755 3.0612,7.0635 C2.9042,7.0185 2.7552,7.0645 2.6272,7.1565 C2.6402,6.6705 2.6532,6.1855 2.6702,5.6995 C2.6882,5.1925 2.7092,4.6865 2.7342,4.1795 C2.7882,4.5515 2.8342,4.9255 2.8762,5.2995 L2.8762,5.2995 Z M2.9032,1.1815 L2.9032,1.1815 C2.8132,1.0745 2.6772,1.0145 2.5402,1.0145 C2.5022,1.0145 2.4652,1.0185 2.4292,1.0275 C2.2512,1.0705 2.1192,1.2095 2.0582,1.3795 C1.9782,1.6055 1.9072,1.8265 1.8802,2.0665 C1.8632,2.2325 1.8512,2.3975 1.8392,2.5625 C1.8272,2.7535 1.8132,2.9435 1.7992,3.1335 C1.7802,3.4195 1.7642,3.7055 1.7512,3.9915 C1.7152,4.6695 1.6902,5.3475 1.6672,6.0255 C1.6262,7.1585 1.6132,8.2915 1.5892,9.4245 C1.5762,10.0355 1.5902,10.6475 1.5912,11.2585 C1.5922,12.2205 1.5972,13.1835 1.6732,14.1425 C1.6782,14.2605 1.6762,14.3795 1.6832,14.4985 C1.6912,14.6235 1.6882,14.7535 1.7172,14.8765 C1.7282,14.9175 1.7402,14.9585 1.7512,14.9995 C1.7182,15.0605 1.6842,15.1215 1.6502,15.1805 C1.4862,15.4635 1.3182,15.7445 1.1462,16.0225 C1.0582,16.1645 0.9712,16.3055 0.8912,16.4515 C0.8092,16.6045 0.7172,16.7605 0.6582,16.9235 C0.6002,17.0825 0.5582,17.2445 0.5522,17.4135 C0.5482,17.5155 0.5722,17.6495 0.6172,17.7415 C0.6442,17.8025 0.6782,17.8605 0.7192,17.9155 C0.9672,18.1655 1.3162,18.3025 1.6442,18.4225 C1.8642,18.5035 2.0852,18.5745 2.3112,18.6395 C3.4052,18.9565 4.5672,18.9155 5.6922,18.8385 C6.8402,18.7605 7.9832,18.6095 9.1262,18.4805 C9.1282,18.4805 9.1302,18.4805 9.1322,18.4805 C9.7072,18.4225 10.2802,18.3535 10.8562,18.3155 C11.2302,18.2925 11.6052,18.2685 11.9802,18.2435 C12.2462,18.2265 12.5152,18.2315 12.7832,18.2265 C13.3152,18.2175 13.8492,18.2155 14.3812,18.2075 C14.8842,18.2005 15.3942,18.2115 15.8952,18.1475 C16.1012,18.1205 16.3242,18.0625 16.4822,17.9165 C16.6352,17.7735 16.7732,17.5035 16.7122,17.2895 C16.6862,17.1975 16.6632,17.1135 16.6112,17.0325 C16.5592,16.9535 16.5072,16.8675 16.4372,16.8025 C16.3132,16.6885 16.1862,16.5785 16.0582,16.4685 C15.9612,16.3865 15.7972,16.3725 15.6792,16.4005 C15.5502,16.4315 15.4392,16.5155 15.3682,16.6265 C15.2932,16.7425 15.2642,16.8875 15.2922,17.0235 C15.3012,17.0725 15.3172,17.1165 15.3372,17.1555 C14.8022,17.1795 14.2642,17.1755 13.7292,17.1805 C13.4642,17.1835 13.2002,17.1855 12.9352,17.1905 C12.6512,17.1945 12.3662,17.1875 12.0842,17.2065 C11.5232,17.2425 10.9612,17.2675 10.4032,17.3235 C9.2142,17.4415 8.0262,17.5685 6.8402,17.7085 C6.5682,17.7355 6.2972,17.7665 6.0242,17.7845 C5.6692,17.8095 5.3152,17.8315 4.9582,17.8455 C4.6472,17.8575 4.3352,17.8555 4.0252,17.8495 C3.7552,17.8425 3.4892,17.8155 3.2212,17.7815 C2.6592,17.6705 2.1082,17.5145 1.5842,17.2745 C1.5842,17.2745 1.5842,17.2745 1.5842,17.2745 C1.5922,17.2475 1.6032,17.2205 1.6142,17.1935 C1.8122,16.8095 2.0482,16.4455 2.2712,16.0735 C2.3802,15.8915 2.4862,15.7085 2.5872,15.5215 C2.5962,15.5175 2.6052,15.5135 2.6132,15.5085 C2.7252,15.4485 2.8352,15.3305 2.8652,15.2035 C2.8812,15.1345 2.8982,15.0655 2.9142,14.9965 C2.9332,15.2005 2.9532,15.4045 2.9722,15.6075 C2.9992,15.8875 3.0292,16.1725 3.0772,16.4495 C3.1102,16.6415 3.1562,16.8265 3.2182,17.0105 C3.2712,17.1665 3.3542,17.2995 3.4432,17.4345 C3.4502,17.4465 3.4582,17.4585 3.4642,17.4695 C3.5022,17.5495 3.5582,17.6145 3.6302,17.6645 C3.7062,17.7145 3.7892,17.7415 3.8802,17.7455 C4.0502,17.7515 4.2352,17.6565 4.3212,17.5065 C4.3872,17.3895 4.4622,17.2745 4.5132,17.1485 C4.5632,17.0225 4.5922,16.8895 4.6112,16.7535 C4.6382,16.5395 4.6412,16.3245 4.6532,16.1085 C4.6612,15.9485 4.6692,15.7885 4.6772,15.6285 C4.6792,15.5795 4.6822,15.5315 4.6842,15.4825 C4.6932,15.4025 4.6962,15.3225 4.6972,15.2425 C4.7052,15.0825 4.7122,14.9225 4.7192,14.7625 C4.7782,13.5065 4.8372,12.2525 4.8982,10.9975 C4.9232,10.4635 4.9772,9.9305 5.0172,9.3995 C5.0432,9.0565 5.0692,8.7135 5.0952,8.3715 C5.1122,8.1515 5.1292,7.9305 5.1522,7.7105 C5.1572,7.7815 5.1632,7.8515 5.1682,7.9215 C5.2112,8.6705 5.2512,9.4195 5.2922,10.1685 C5.3202,10.6675 5.3322,11.1675 5.3502,11.6675 C5.3552,12.1635 5.3622,12.6595 5.3722,13.1545 C5.3972,14.4855 5.4202,15.8155 5.5192,17.1435 C5.5292,17.2655 5.6282,17.3955 5.7262,17.4615 C5.8362,17.5365 5.9752,17.5605 6.1052,17.5295 C6.3182,17.4785 6.5022,17.2655 6.5012,17.0415 C6.5012,16.9855 6.5012,16.9305 6.5012,16.8755 L6.5212,17.1135 C6.5322,17.2365 6.6292,17.3645 6.7292,17.4325 C6.8382,17.5075 6.9772,17.5315 7.1072,17.5005 C7.3272,17.4475 7.4962,17.2385 7.5042,17.0125 C7.5192,16.5745 7.4922,16.1365 7.4702,15.6995 C7.4482,15.2265 7.4242,14.7535 7.4012,14.2795 C7.3992,14.2435 7.3982,14.2075 7.3962,14.1715 C7.5672,14.1945 7.7382,14.2195 7.9102,14.2465 C7.9192,14.2475 7.9292,14.2495 7.9382,14.2515 L7.9152,14.2465 C7.9172,14.2475 7.9182,14.2475 7.9192,14.2475 C7.9162,14.2465 7.9122,14.2465 7.9082,14.2455 C7.8752,14.2395 7.8412,14.2335 7.8072,14.2275 C7.8912,14.2425 7.9752,14.2575 8.0592,14.2725 C8.0912,14.5515 8.1242,14.8305 8.1562,15.1095 C8.2312,15.7525 8.3022,16.3955 8.4042,17.0345 C8.4402,17.2545 8.6402,17.4265 8.8612,17.4335 C9.0262,17.4395 9.2232,17.3465 9.3022,17.1955 C9.3452,17.1115 9.4092,17.0205 9.4262,16.9275 C9.4462,16.8235 9.4712,16.7195 9.4822,16.6135 C9.4972,16.4615 9.5012,16.3115 9.4962,16.1595 C9.4882,15.9375 9.4742,15.7155 9.4712,15.4935 C9.4682,15.2785 9.4652,15.0645 9.4622,14.8495 C9.4612,14.7475 9.4592,14.6455 9.4582,14.5435 C9.5312,14.5585 9.6032,14.5735 9.6762,14.5885 C9.7102,14.8505 9.7462,15.1105 9.7842,15.3715 C9.8162,15.5915 10.0222,15.7645 10.2412,15.7715 C10.4552,15.7775 10.6902,15.6215 10.7412,15.4055 C10.7742,15.2625 10.8112,15.1175 10.8182,14.9695 C10.8202,14.9295 10.8212,14.8885 10.8222,14.8475 C10.9792,14.8905 11.1362,14.9355 11.2932,14.9775 C11.4352,15.0135 11.5772,15.0505 11.7192,15.0885 C12.0422,15.1745 12.3562,15.2945 12.6832,15.3665 C12.9132,15.4165 13.1452,15.4655 13.3772,15.4965 C13.4682,15.5075 13.5622,15.5235 13.6552,15.5165 C13.7532,15.5095 13.8622,15.5115 13.9582,15.4815 C14.0882,15.4415 14.2142,15.3875 14.3312,15.3185 C14.3322,15.3225 14.3342,15.3275 14.3342,15.3315 C14.3702,15.4615 14.4262,15.5725 14.5422,15.6505 C14.6512,15.7255 14.7902,15.7505 14.9192,15.7185 C15.0472,15.6875 15.1602,15.6035 15.2312,15.4935 C15.2552,15.4545 15.2752,15.4145 15.2892,15.3725 C15.3992,15.4485 15.5412,15.4805 15.6752,15.4485 C15.8042,15.4165 15.9172,15.3335 15.9882,15.2225 C16.0382,15.1425 16.0672,15.0545 16.0732,14.9595 L16.0792,14.9245 C16.1162,14.7325 16.1482,14.5425 16.1622,14.3465 C16.1782,14.1095 16.1892,13.8725 16.1942,13.6355 C16.1992,13.3215 16.2052,13.0085 16.2082,12.6955 C16.2232,11.5065 16.2432,10.3165 16.2532,9.1285 C16.2562,8.8395 16.2582,8.5505 16.2612,8.2615 C16.2922,7.9955 16.3162,7.7295 16.3352,7.4625 C16.3612,7.0715 16.3692,6.6795 16.3832,6.2875 C16.3902,6.0875 16.3952,5.8905 16.3822,5.6905 C16.3752,5.5905 16.3782,5.4615 16.3462,5.3635 C16.3182,5.2765 16.2912,5.1895 16.2542,5.1055 C16.1712,4.9075 15.9432,4.8005 15.7372,4.8375 C15.7302,4.7245 15.7232,4.6115 15.7152,4.4985 C15.7092,4.3855 15.7012,4.2725 15.6932,4.1605 L15.6932,4.1505 C15.6962,4.0285 15.6762,3.9015 15.6682,3.7825 C15.6602,3.6445 15.6432,3.5265 15.5482,3.4165 C15.4902,3.3485 15.4182,3.2995 15.3332,3.2725 C15.1212,3.2025 14.8782,3.2995 14.7622,3.4875 C14.7152,3.5645 14.6742,3.6335 14.6382,3.7175 C14.6002,3.8085 14.5842,3.9035 14.5682,3.9995 C14.5422,4.1565 14.5362,4.3135 14.5392,4.4715 C14.5422,4.6275 14.5422,4.7815 14.5402,4.9365 C14.5332,5.2505 14.5272,5.5635 14.5202,5.8775 C14.5132,6.2855 14.5072,6.6935 14.5012,7.1035 C14.4912,7.8985 14.4822,8.6925 14.4752,9.4875 C14.4432,9.2595 14.4112,9.0325 14.3772,8.8045 C14.3022,8.2685 14.2112,7.7335 14.1272,7.1985 C14.0872,6.9435 14.0482,6.6885 14.0072,6.4345 C13.9802,6.2625 13.9522,6.0895 13.9242,5.9185 C13.8972,5.7475 13.8722,5.5755 13.8252,5.4085 C13.7992,5.3115 13.7702,5.2155 13.7372,5.1215 C13.7092,5.0445 13.6852,4.9585 13.6442,4.8875 C13.5972,4.8075 13.5512,4.7255 13.4902,4.6565 C13.4392,4.5995 13.3872,4.5425 13.3362,4.4845 C13.2202,4.3495 13.0372,4.2885 12.8632,4.3305 C12.6962,4.3705 12.5342,4.5115 12.4912,4.6825 C12.4152,4.9855 12.3382,5.2855 12.3162,5.5995 C12.3022,5.7995 12.2932,6.0005 12.2822,6.2005 C12.2692,6.4165 12.2552,6.6305 12.2432,6.8455 C12.1852,7.7865 12.1352,8.7275 12.0912,9.6685 C11.9662,8.6925 11.8442,7.7155 11.7222,6.7385 C11.6572,6.2075 11.5782,5.6775 11.5042,5.1465 C11.4662,4.8635 11.4272,4.5825 11.3882,4.2995 C11.3472,3.9945 11.3232,3.6835 11.2632,3.3825 C11.2272,3.1945 11.1812,3.0055 11.1082,2.8275 C11.0462,2.6725 10.9502,2.5495 10.8462,2.4205 C10.7062,2.2425 10.4452,2.2085 10.2512,2.3125 C10.0872,2.4015 9.9902,2.5705 9.9742,2.7545 C9.9502,3.0495 9.9222,3.3445 9.9162,3.6415 C9.9112,3.8975 9.9052,4.1535 9.9002,4.4085 C9.8932,4.7045 9.8872,5.0005 9.8812,5.2955 C9.8712,5.8535 9.8602,6.4115 9.8492,6.9695 C9.8442,6.9125 9.8382,6.8555 9.8332,6.7985 C9.7712,6.1775 9.7002,5.5565 9.6482,4.9345 C9.6262,4.5055 9.6452,4.0735 9.5932,3.6465 C9.5662,3.4245 9.5202,3.2055 9.4362,2.9965 C9.4192,2.9505 9.4002,2.9055 9.3772,2.8615 C9.3482,2.8005 9.3132,2.7425 9.2732,2.6885 C9.2102,2.6295 9.1512,2.5725 9.0792,2.5265 C8.9272,2.4285 8.7402,2.4195 8.5812,2.5055 C8.4252,2.5895 8.3052,2.7675 8.3032,2.9465 C8.2932,4.1075 8.3202,5.2705 8.3362,6.4315 C8.3432,6.9285 8.3512,7.4265 8.3592,7.9235 C8.3142,7.5105 8.2682,7.0965 8.2232,6.6835 C8.1892,6.3765 8.1532,6.0685 8.1182,5.7615 C8.0702,5.3395 8.0242,4.9155 7.9472,4.4975 C7.9122,4.3095 7.8752,4.1225 7.8182,3.9405 C7.7632,3.7625 7.7052,3.5855 7.6502,3.4075 C7.6102,3.2775 7.5602,3.1695 7.4432,3.0885 C7.3672,3.0385 7.2842,3.0115 7.1932,3.0085 C7.0622,3.0035 6.9332,3.0555 6.8372,3.1435 C6.7702,3.2085 6.7222,3.2835 6.6932,3.3735 C6.6702,3.4895 6.6452,3.6055 6.6212,3.7215 C6.5642,3.3965 6.4882,3.0745 6.4172,2.7505 C6.3702,2.5305 6.1912,2.3585 5.9612,2.3515 C5.7852,2.3445 5.6142,2.4415 5.5202,2.5895 C5.4672,2.6745 5.4202,2.7515 5.3802,2.8435 C5.3402,2.9375 5.3232,3.0305 5.3062,3.1315 C5.2792,3.3095 5.2762,3.4845 5.2862,3.6635 C5.2942,3.8365 5.3032,4.0075 5.3042,4.1815 L5.3042,4.4135 C5.2842,4.4025 5.2622,4.3935 5.2422,4.3875 C5.1582,4.3605 5.0722,4.3565 4.9852,4.3765 C4.8612,4.3835 4.7272,4.3925 4.6212,4.4575 C4.5682,4.4875 4.5182,4.5215 4.4702,4.5595 C4.4292,4.6085 4.3882,4.6575 4.3482,4.7075 C4.3102,4.7865 4.2602,4.8635 4.2412,4.9505 C4.2262,5.0185 4.2122,5.0865 4.2012,5.1555 C4.1862,5.2535 4.1802,5.3515 4.1682,5.4475 C4.1182,5.8125 4.0932,6.1775 4.0682,6.5445 C4.0602,6.6635 4.0512,6.7825 4.0432,6.9015 C4.0042,6.5255 3.9652,6.1505 3.9252,5.7745 C3.8782,5.3355 3.8332,4.8955 3.7772,4.4565 C3.7262,4.0615 3.6612,3.6695 3.6052,3.2745 C3.5512,2.8985 3.5192,2.5105 3.4152,2.1435 C3.3872,2.0465 3.3572,1.9505 3.3242,1.8545 C3.2952,1.7765 3.2712,1.6895 3.2302,1.6175 C3.1812,1.5335 3.1332,1.4455 3.0692,1.3725 C3.0142,1.3095 2.9582,1.2465 2.9032,1.1815 L2.9032,1.1815 Z" id="Fill-3" fill="#009A27"></path>
                        <path d="M5.7962,18.9142 L5.7962,18.9142 C5.7952,19.1882 5.7922,19.4612 5.7902,19.7342 C5.7792,19.6892 5.7672,19.6442 5.7532,19.5992 C5.7112,19.4522 5.6532,19.3102 5.5972,19.1672 C5.6632,18.9032 5.7282,18.6382 5.7922,18.3722 C5.7952,18.4462 5.7972,18.5202 5.7972,18.5942 C5.7972,18.7012 5.7962,18.8082 5.7962,18.9142 M5.3892,14.8872 L5.3892,14.8872 C5.4032,14.9532 5.4142,15.0192 5.4212,15.0872 C5.4242,15.2832 5.4032,15.4742 5.3712,15.6672 C5.3122,15.9592 5.2482,16.2502 5.1932,16.5422 C5.1992,16.5122 5.2052,16.4812 5.2112,16.4512 C5.2052,16.4852 5.1982,16.5202 5.1912,16.5552 C5.1892,16.5662 5.1872,16.5762 5.1852,16.5872 C5.1862,16.5772 5.1882,16.5682 5.1902,16.5592 C5.1012,17.0122 4.9972,17.4612 4.8872,17.9092 C4.8642,17.6872 4.8412,17.4652 4.8182,17.2422 C4.7802,16.8732 4.7282,16.5072 4.6762,16.1382 C4.6382,15.8682 4.3492,15.6892 4.0912,15.7522 C4.0072,15.7722 3.9302,15.8022 3.8532,15.8412 C3.7532,15.8922 3.6892,15.9782 3.6292,16.0702 C3.5462,16.1992 3.5062,16.3592 3.4842,16.5092 C3.4492,16.7432 3.4722,16.9812 3.4902,17.2172 C3.5062,17.5542 3.4872,17.8952 3.4812,18.2322 C3.4252,18.2242 3.3682,18.2262 3.3072,18.2412 C3.1452,18.2812 2.9732,18.4232 2.9362,18.5932 C2.8702,18.8992 2.8042,19.2012 2.7812,19.5152 C2.7572,19.8162 2.7502,20.1172 2.74320094,20.4202 C2.7322,20.8302 2.7212,21.2402 2.7102,21.6502 C2.6622,21.3312 2.6132,21.0122 2.5642,20.6922 C2.5182,20.3952 2.4692,20.0972 2.4222,19.8002 C2.4032,19.6832 2.3852,19.5662 2.3662,19.4482 C2.3352,19.2582 2.3172,19.0622 2.2702,18.8742 C2.2452,18.7722 2.2192,18.6622 2.1782,18.5662 C2.1442,18.4862 2.1042,18.4102 2.0632,18.3342 C1.9922,18.2032 1.8782,18.1082 1.7442,18.0732 C1.7372,17.8472 1.7682,17.6212 1.7992,17.3972 C1.8202,17.2472 1.8422,17.0992 1.8672,16.9512 C1.9132,16.7382 1.9642,16.5302 2.0432,16.3262 C2.0722,16.2742 2.1032,16.2222 2.1382,16.1732 C2.1722,16.1382 2.2072,16.1062 2.2442,16.0752 C2.6292,15.8282 3.0702,15.6682 3.4962,15.5022 C3.7592,15.4112 4.0212,15.3152 4.2862,15.2302 C4.4582,15.1742 4.6302,15.1192 4.8032,15.0632 C4.9442,15.0182 5.0852,14.9652 5.2282,14.9302 C5.2822,14.9172 5.3362,14.9022 5.3892,14.8872 M5.9872,13.9342 L5.9872,13.9342 C5.8672,13.8432 5.7322,13.8062 5.5902,13.8062 C5.5462,13.8062 5.5032,13.8102 5.4582,13.8162 C5.3142,13.8372 5.1712,13.8832 5.0322,13.9232 C4.8952,13.9602 4.7602,14.0062 4.6252,14.0492 C4.1232,14.2102 3.6132,14.3662 3.1222,14.5622 C2.8112,14.6862 2.4932,14.8002 2.1922,14.9492 C1.8592,15.1142 1.5232,15.3032 1.3102,15.6212 C1.1642,15.8432 1.0642,16.0922 0.9972,16.3482 C0.9272,16.6112 0.8752,16.8812 0.8372,17.1502 C0.8182,17.2902 0.7982,17.4302 0.7832,17.5702 C0.7712,17.6532 0.7592,17.7362 0.7552,17.8202 C0.7482,17.9422 0.7532,18.0622 0.7602,18.1832 C0.7962,18.8992 0.8082,19.6152 0.8212,20.3312 C0.8582,22.2462 0.8562,24.1612 0.8462,26.0762 C0.8432,26.5342 0.8402,26.9932 0.8392,27.4512 C0.8392,27.7232 1.0142,27.9752 1.3052,27.9852 C1.5742,27.9942 1.8302,27.7562 1.8322,27.4832 C1.8332,27.2102 1.8352,26.9382 1.8372,26.6652 L1.8372,26.6352 C1.8472,25.5322 1.8582,24.4302 1.8762,23.3262 C1.8782,23.1762 1.8802,23.0262 1.8832,22.8762 C1.9482,23.3342 2.0022,23.7952 2.0622,24.2532 C2.1262,24.7482 2.1852,25.2422 2.2392,25.7392 C2.2802,26.1182 2.3212,26.4992 2.3622,26.8792 C2.4142,27.3602 2.4272,27.8472 2.5552,28.3162 C2.5902,28.4462 2.6482,28.5562 2.7622,28.6352 C2.8732,28.7102 3.0102,28.7332 3.1402,28.7022 C3.3762,28.6462 3.5092,28.4432 3.5382,28.2142 C3.5832,27.8712 3.5872,27.5302 3.5932,27.1842 C3.5982,26.8632 3.6032,26.5432 3.6072,26.2222 C3.6162,26.4812 3.6252,26.7402 3.6332,26.9982 C3.6382,27.1172 3.6462,27.2372 3.6442,27.3552 C3.6422,27.5442 3.6312,27.7312 3.6482,27.9192 C3.6552,28.0042 3.6682,28.0802 3.6902,28.1622 C3.7192,28.2702 3.7662,28.3442 3.8292,28.4352 C3.9002,28.5402 4.0532,28.5992 4.1742,28.6022 C4.2632,28.6052 4.3462,28.5852 4.4232,28.5432 C4.5772,28.4602 4.7022,28.2802 4.7012,28.1012 L4.7012,28.0082 C4.7932,28.2062 5.0372,28.3202 5.2502,28.2682 C5.4582,28.2192 5.6552,28.0042 5.6472,27.7802 C5.6232,27.1122 5.5982,26.4432 5.5742,25.7742 C5.6322,26.3272 5.6722,26.8832 5.7522,27.4332 C5.7752,27.5902 5.8802,27.7162 6.0162,27.7822 C6.0212,28.0092 6.0252,28.2362 6.0302,28.4632 C6.0432,29.1092 6.0612,29.7552 6.1202,30.3982 C6.1302,30.5222 6.2272,30.6502 6.3262,30.7172 C6.4362,30.7922 6.5752,30.8152 6.7052,30.7842 C6.9282,30.7302 7.0882,30.5242 7.1022,30.2962 C7.1602,29.3492 7.1552,28.3972 7.1662,27.4492 C7.1972,24.5652 7.2242,21.6812 7.25320504,18.7972 C7.2542,18.5502 7.1062,18.3182 6.8612,18.2722 C6.8532,18.0722 6.8442,17.8722 6.8362,17.6722 C6.8292,17.5342 6.8092,17.4162 6.7152,17.3062 C6.6582,17.2392 6.5872,17.1902 6.5012,17.1622 C6.3562,17.1152 6.1752,17.1462 6.0482,17.2412 C6.1062,16.9702 6.1612,16.6992 6.2122,16.4272 C6.2042,16.4732 6.1942,16.5182 6.1862,16.5642 C6.2622,16.1832 6.3722,15.8012 6.4042,15.4122 C6.4322,15.0552 6.4052,14.6912 6.2772,14.3542 C6.2162,14.1932 6.1272,14.0412 5.9872,13.9342" id="Fill-5" fill="#009A27"></path>
                        <path d="M10.2361,33.2413 L10.2361,33.2413 C10.1991,33.2063 10.1611,33.1733 10.1231,33.1393 C10.1351,33.1503 10.1481,33.1623 10.1611,33.1733 C10.1861,33.1963 10.2111,33.2183 10.2361,33.2413 M7.2541,32.2983 L7.2541,32.2983 C7.3501,32.4123 7.4441,32.5283 7.5391,32.6423 C7.5411,32.6533 7.5441,32.6643 7.5461,32.6753 C7.6201,32.9563 7.6981,33.2373 7.7791,33.5163 C7.7041,33.4003 7.6281,33.2893 7.5421,33.1823 C7.4871,33.1143 7.4341,33.0463 7.3841,32.9743 C7.0091,32.3813 6.6381,31.7843 6.2641,31.1893 C6.2291,31.1353 6.1951,31.0793 6.1611,31.0253 C6.3241,31.2113 6.4871,31.3993 6.6481,31.5883 C6.8501,31.8243 7.0521,32.0613 7.2541,32.2983 M4.4551,26.6883 L4.4551,26.6883 C4.3721,26.6353 4.2791,26.6093 4.1871,26.6093 C4.0661,26.6093 3.9451,26.6543 3.8491,26.7433 C3.7411,26.8443 3.6901,26.9743 3.6831,27.1143 C3.6441,27.1153 3.6051,27.1193 3.5701,27.1273 C3.4841,27.1493 3.4081,27.1903 3.3431,27.2503 C3.2031,27.3543 3.0941,27.5173 3.0851,27.6973 C3.0831,27.7343 3.0831,27.7693 3.0861,27.8033 C2.9051,27.7013 2.6701,27.7293 2.5101,27.8763 C2.4101,27.9703 2.3471,28.1043 2.3401,28.2413 C2.3361,28.3243 2.3491,28.3943 2.3781,28.4613 C2.3151,28.4843 2.2571,28.5203 2.2081,28.5663 C2.1061,28.6593 2.0441,28.7933 2.0371,28.9313 C2.0311,29.0223 2.0481,29.1073 2.0871,29.1893 C2.1961,29.4993 2.4161,29.7593 2.6131,30.0193 C2.6801,30.1093 2.7481,30.2003 2.8151,30.2903 L3.3251,30.9743 C3.2581,31.0613 3.2161,31.1643 3.2111,31.2773 C3.2031,31.4173 3.2501,31.5323 3.3311,31.6433 C3.4381,31.7923 3.5421,31.9433 3.6601,32.0843 C3.7841,32.2313 3.9111,32.3743 4.0391,32.5173 C4.1281,32.6193 4.2181,32.7213 4.3081,32.8233 C4.4821,33.0203 4.6571,33.2173 4.8331,33.4123 C5.0081,33.6083 5.1831,33.8033 5.3611,33.9963 C5.6761,34.3393 5.9821,34.6953 6.3441,34.9883 C6.5191,35.1303 6.7951,35.0753 6.9491,34.9343 C7.0481,34.8413 7.1091,34.7113 7.1191,34.5763 L7.4091,34.8033 C7.6411,34.9843 7.8821,35.1623 8.1321,35.3213 C8.2111,35.3713 8.2831,35.4133 8.3681,35.4553 C8.4251,35.4893 8.4891,35.5063 8.5571,35.5063 C8.7231,35.5293 8.9011,35.4653 9.0241,35.3513 C9.0981,35.2823 9.1751,35.1713 9.2081,35.0743 C9.2241,35.0083 9.2351,34.9413 9.2391,34.8733 C9.2521,34.7273 9.1901,34.5833 9.1391,34.4473 C9.0511,34.1683 8.9491,33.8943 8.8521,33.6183 C8.8501,33.6123 8.8481,33.6053 8.8461,33.5983 C8.8831,33.5863 8.9191,33.5713 8.9521,33.5523 C8.9601,33.5583 8.9661,33.5653 8.9741,33.5723 C9.1211,33.7073 9.2671,33.8403 9.4141,33.9743 C9.5961,34.1403 9.7891,34.2933 9.9821,34.4473 C10.2021,34.6213 10.5341,34.5043 10.6721,34.2893 C10.7901,34.1063 10.7951,33.8263 10.6371,33.6603 C10.4751,33.4883 10.3171,33.3133 10.1401,33.1553 C10.1441,33.1583 10.1481,33.1623 10.1521,33.1663 C10.0391,33.0633 9.9241,32.9613 9.8111,32.8583 C9.8201,32.8513 9.8281,32.8443 9.8371,32.8363 C9.9941,32.6903 10.0731,32.4083 9.9581,32.2133 C9.8111,31.9653 9.6651,31.7203 9.4931,31.4883 C9.3841,31.3413 9.2731,31.1953 9.1631,31.0483 C9.0121,30.8453 8.8621,30.6433 8.7111,30.4423 C8.4711,30.1223 8.2411,29.7963 8.0071,29.4723 C7.5631,28.8563 7.1321,28.2283 6.7111,27.5983 C6.6731,27.5353 6.6331,27.4723 6.5911,27.4123 C6.5651,27.3693 6.5351,27.3303 6.5011,27.2933 C6.4511,27.2473 6.4011,27.2023 6.3501,27.1583 C6.3111,27.1383 6.2711,27.1193 6.2311,27.0993 C6.2041,27.0843 6.1741,27.0733 6.1421,27.0653 C5.8111,26.9643 5.5091,27.2333 5.4861,27.5423 C5.3981,27.4563 5.3091,27.3723 5.2191,27.2903 C5.0931,27.1753 4.9681,27.0593 4.8371,26.9523 C4.7151,26.8543 4.5861,26.7733 4.4551,26.6883" id="Fill-7" fill="#009A27"></path>
                        <path d="M8.8905,16.5365 L8.8905,16.5365 C8.8425,16.5215 8.7925,16.5135 8.7435,16.5135 C8.6625,16.5135 8.5825,16.5335 8.5105,16.5725 C8.4025,16.6315 8.2835,16.7525 8.2585,16.8775 C8.1685,17.3295 8.0765,17.7805 7.9905,18.2315 C7.8555,18.9335 7.7205,19.6345 7.5865,20.3355 C7.4735,20.9245 7.3775,21.5175 7.2755,22.1085 C7.2575,22.2095 7.2405,22.3095 7.2235,22.4105 C6.9735,22.4245 6.7305,22.6515 6.7385,22.9105 C6.7595,23.7155 6.7825,24.5205 6.7845,25.3255 C6.7845,25.5965 6.9585,25.8485 7.2495,25.8585 C7.3815,25.8635 7.5085,25.8115 7.6045,25.7225 C7.7135,25.6215 7.7535,25.4995 7.7765,25.3565 C7.8325,24.9865 7.8745,24.6125 7.9305,24.2425 C7.9915,23.8395 8.0535,23.4375 8.1185,23.0345 C8.2495,22.2335 8.3925,21.4365 8.5275,20.6365 C8.7525,19.4855 8.9695,18.3335 9.1995,17.1845 C9.2275,17.0435 9.2405,16.9225 9.1755,16.7895 C9.1175,16.6705 9.0155,16.5775 8.8905,16.5365" id="Fill-9" fill="#009A27"></path>
                        <path d="M4.5775,1.6705 L4.5775,1.6705 L4.5365,1.6705 C4.4395,1.6705 4.3405,1.6755 4.2425,1.6795 C4.1075,1.6855 3.9895,1.7225 3.8875,1.8155 C3.7865,1.9095 3.7245,2.0435 3.7165,2.1815 C3.7035,2.4095 3.8365,2.6155 4.0525,2.6915 C4.2805,2.7735 4.5215,2.7915 4.7605,2.8285 C4.8915,2.8475 5.0215,2.8675 5.1535,2.8855 C5.3535,2.9165 5.5545,2.9505 5.7545,2.9825 C6.0135,3.0285 6.2715,3.0745 6.5295,3.1195 C6.5055,3.1155 6.4825,3.1105 6.4585,3.1065 C6.4825,3.1115 6.5045,3.1155 6.5285,3.1195 C6.4925,3.1295 6.4585,3.1405 6.4225,3.1515 C6.2015,3.2205 6.0385,3.4005 6.0265,3.6395 C6.0155,3.8215 6.0985,3.9835 6.2405,4.0925 C6.3855,4.1985 6.5235,4.3005 6.6955,4.3625 C6.8425,4.4165 6.9945,4.4565 7.1475,4.4945 C7.4225,4.5645 7.7015,4.6185 7.9825,4.6675 C8.2495,4.7145 8.5165,4.7605 8.7835,4.8075 C8.9795,4.8405 9.1765,4.8595 9.3735,4.8825 C9.5315,4.9005 9.6915,4.9185 9.8505,4.9375 C9.9165,4.9455 9.9855,4.9585 10.0525,4.9605 C10.4945,4.9785 10.9385,5.0085 11.3815,5.0105 L11.8565,5.0135 C11.7535,5.0725 11.6485,5.1235 11.5375,5.1685 C10.9805,5.3715 10.4035,5.5055 9.8165,5.5895 C9.5905,5.6225 9.3645,5.6545 9.1375,5.6865 C8.6975,5.7505 8.2565,5.8125 7.8165,5.8765 C7.3385,5.9475 6.8615,6.0195 6.3845,6.0985 C5.8845,6.1815 5.3825,6.2605 4.8885,6.3715 C4.6975,6.4135 4.5045,6.4555 4.3155,6.5075 C4.1375,6.5575 3.9865,6.6585 3.8545,6.7835 C3.7905,6.8455 3.7315,6.9265 3.6875,7.0025 C3.6425,7.0805 3.5805,7.2305 3.5865,7.3235 C3.5925,7.4085 3.5935,7.4925 3.6155,7.5745 C3.6405,7.6665 3.6725,7.7415 3.7175,7.8215 C3.9025,8.1465 4.2005,8.4265 4.5075,8.6335 C4.8035,8.8335 5.1175,9.0115 5.4345,9.1765 C6.1575,9.5525 6.9145,9.8725 7.6785,10.1565 C8.2385,10.3645 8.8025,10.5655 9.3735,10.7375 C9.9515,10.9115 10.5295,11.0975 11.1125,11.2605 C11.4425,11.3535 11.7725,11.4465 12.1035,11.5395 C12.2135,11.5695 12.3235,11.6015 12.4345,11.6325 C12.5855,11.6745 12.7405,11.7105 12.8925,11.7515 C12.7405,11.7875 12.5875,11.8255 12.4335,11.8555 C12.1885,11.9025 11.9435,11.9485 11.6965,11.9855 C11.3885,12.0335 11.0815,12.0795 10.7755,12.1255 C10.3075,12.1975 9.8365,12.2475 9.3665,12.3025 C8.9185,12.3485 8.4705,12.3895 8.0215,12.4255 C7.8835,12.4365 7.7715,12.4645 7.6665,12.5615 C7.5655,12.6555 7.5035,12.7895 7.4955,12.9265 C7.4885,13.0585 7.5305,13.1925 7.6155,13.2925 C7.6945,13.3845 7.8345,13.4705 7.9615,13.4605 C8.8305,13.3915 9.6985,13.3015 10.5625,13.1885 C10.9975,13.1315 11.4325,13.0645 11.8655,12.9985 C12.0235,12.9745 12.1795,12.9465 12.3365,12.9185 C12.6195,12.8685 12.8975,12.8005 13.1775,12.7395 C13.3125,12.7105 13.4495,12.6875 13.5795,12.6415 C13.6935,12.6025 13.8165,12.5665 13.9185,12.5025 C14.0435,12.4245 14.1385,12.3485 14.2325,12.2335 C14.2975,12.1525 14.3525,12.0635 14.4125,11.9795 C14.5655,11.7615 14.5105,11.4075 14.2815,11.2635 C14.1505,11.1815 14.0235,11.0935 13.8885,11.0175 C13.7485,10.9375 13.5935,10.8735 13.4405,10.8265 C13.2125,10.7585 12.9815,10.7055 12.7525,10.6415 C12.5315,10.5795 12.3105,10.5185 12.0895,10.4555 C11.7175,10.3515 11.3475,10.2455 10.9785,10.1345 C10.5165,9.9965 10.0505,9.8675 9.5935,9.7175 C8.4375,9.3375 7.2865,8.9325 6.1885,8.4035 C5.9345,8.2745 5.6855,8.1375 5.4405,7.9935 C5.2325,7.8725 5.0315,7.7445 4.8475,7.5915 C4.8035,7.5495 4.7615,7.5055 4.7215,7.4605 C5.0375,7.3825 5.3605,7.3225 5.6815,7.2635 C5.8795,7.2275 6.0755,7.1895 6.2745,7.1575 C6.7355,7.0815 7.1965,7.0055 7.6585,6.9375 C8.1015,6.8735 8.5435,6.8085 8.9865,6.7445 C9.2865,6.7015 9.5885,6.6595 9.8895,6.6165 C10.3035,6.5575 10.7245,6.4875 11.1265,6.3755 C11.3235,6.3205 11.5195,6.2585 11.7105,6.1875 C11.8795,6.1235 12.0555,6.0635 12.2125,5.9765 C12.5315,5.8005 12.8135,5.5575 12.9955,5.2385 C13.0315,5.1755 13.0625,5.1085 13.0855,5.0385 C13.2005,5.0465 13.3155,5.0595 13.4295,5.0755 C13.6175,5.1155 13.7995,5.1665 13.9755,5.2415 C14.0655,5.2925 14.1475,5.3495 14.2275,5.4145 C14.2875,5.4755 14.3435,5.5395 14.3955,5.6095 C14.4615,5.7295 14.5105,5.8575 14.5565,5.9875 C14.6785,6.3715 14.7715,6.7655 14.8665,7.1575 C15.1345,8.2555 15.3895,9.3575 15.6465,10.4585 C15.7725,11.0045 15.8935,11.5505 16.0095,12.0995 C16.2245,13.1045 16.4335,14.1105 16.5105,15.1385 C16.5285,15.4415 16.5385,15.7465 16.5245,16.0505 C16.5115,16.3175 16.4795,16.5805 16.4335,16.8435 C16.3915,17.0465 16.3395,17.2485 16.2765,17.4465 C16.2405,17.5555 16.1965,17.6635 16.1695,17.7745 C15.9705,17.8265 15.7655,17.8595 15.5625,17.8965 C15.3935,17.9265 15.2215,17.9485 15.0505,17.9745 C14.7745,18.0155 14.4945,18.0515 14.2165,18.0825 L14.2155,18.0835 C14.2055,18.0745 14.1965,18.0655 14.1865,18.0585 C13.9635,17.8845 13.6665,17.9375 13.4065,17.9445 C13.3455,17.9465 13.2825,17.9485 13.2205,17.9495 C12.9485,17.9565 12.6775,17.9635 12.4045,17.9715 C11.8185,17.9865 11.2325,18.0075 10.6465,18.0265 C10.4255,18.0335 10.2025,18.0355 9.9825,18.0385 C9.9275,18.0395 9.8715,18.0405 9.8175,18.0415 C8.3955,18.0305 6.9735,17.9905 5.5535,17.9265 C5.4765,17.9225 5.4035,17.9385 5.3375,17.9695 C5.2595,17.9885 5.1895,18.0225 5.1225,18.0835 C5.0215,18.1785 4.9605,18.3125 4.9515,18.4495 C4.9445,18.5815 4.9855,18.7155 5.0725,18.8155 C5.1645,18.9255 5.2805,18.9645 5.4175,18.9835 C5.7685,19.0305 6.1205,19.0695 6.4725,19.1095 C7.0595,19.1765 7.6495,19.2155 8.2385,19.2645 C8.4495,19.2825 8.6635,19.2845 8.8755,19.2915 C9.2535,19.3075 9.6305,19.3225 10.0085,19.3375 C10.1985,19.3455 10.3875,19.3385 10.5765,19.3355 C10.9535,19.3295 11.3285,19.3235 11.7055,19.3175 C11.9215,19.3135 12.1375,19.2935 12.3535,19.2785 C12.6765,19.2555 12.9995,19.2405 13.3225,19.2065 C13.2995,19.2085 13.2785,19.2105 13.2555,19.2135 C13.2675,19.2115 13.2795,19.2105 13.2905,19.2095 C13.5915,19.1775 13.8915,19.1465 14.1925,19.1145 C14.2425,19.1085 14.2925,19.1045 14.3435,19.0985 L14.2995,19.1025 C14.6985,19.0595 15.0945,19.0055 15.4905,18.9465 C15.6925,18.9155 15.8925,18.8805 16.0935,18.8445 C16.1975,18.8255 16.3015,18.8035 16.4025,18.7745 C16.5155,18.7435 16.6445,18.7115 16.7455,18.6525 C16.8545,18.5895 16.9505,18.5135 17.0205,18.4075 C17.0845,18.3055 17.1075,18.1875 17.1145,18.0695 C17.1785,17.8175 17.2825,17.5755 17.3375,17.3205 C17.4075,17.0055 17.4695,16.6845 17.4965,16.3635 C17.5495,15.7435 17.5155,15.1135 17.4505,14.4965 C17.3465,13.5225 17.1345,12.5705 16.9305,11.6145 C16.8135,11.0655 16.6885,10.5205 16.5615,9.9745 C16.3045,8.8755 16.0485,7.7765 15.7815,6.6815 C15.7155,6.4085 15.6495,6.1355 15.5665,5.8675 C15.4545,5.5045 15.3425,5.1205 15.0855,4.8285 C14.8495,4.5585 14.5555,4.3395 14.2165,4.2165 C13.9745,4.1285 13.7255,4.0735 13.4725,4.0395 C13.4615,3.9385 13.4245,3.8415 13.3555,3.7755 C13.2975,3.7195 13.2385,3.6515 13.1735,3.6055 C13.1015,3.5545 13.0155,3.5105 12.9345,3.4775 C12.7795,3.4145 12.6195,3.3735 12.4555,3.3405 C12.3115,3.3125 12.1675,3.2795 12.0245,3.2455 C11.9485,3.2275 11.8725,3.2095 11.7975,3.1915 C11.5445,3.0785 11.2865,2.9775 11.0205,2.8925 C10.6585,2.7785 10.2885,2.6745 9.9175,2.6025 C9.6065,2.5415 9.2955,2.4775 8.9855,2.4145 C7.8825,2.1935 6.7725,2.0085 5.6635,1.8175 C5.4345,1.7775 5.2035,1.7395 4.9735,1.7095 C4.8425,1.6935 4.7105,1.6735 4.5775,1.6705" id="Fill-11" fill="#009A27"></path>
                        <path d="M2.0711,7.0882 L2.0711,7.0882 C1.9911,7.0342 1.9031,7.0092 1.8141,7.0092 C1.7331,7.0092 1.6511,7.0302 1.5731,7.0672 C1.0761,7.3002 1.1231,7.9332 1.0671,8.3912 C1.0381,8.6432 1.0071,8.8952 0.9771,9.1482 C0.9311,9.5302 0.8811,9.9112 0.8461,10.2942 C0.7681,11.2062 0.6741,12.1172 0.6241,13.0322 C0.5821,13.7842 0.5401,14.5372 0.4991,15.2902 C0.4731,15.7492 0.4661,16.2102 0.4531,16.6702 C0.4371,17.2292 0.4101,17.7892 0.4051,18.3492 C0.4001,19.0412 0.3931,19.7342 0.3881,20.4272 C0.3811,21.1972 0.3891,21.9672 0.3991,22.7372 C0.3991,22.8292 0.4001,22.9212 0.4031,23.0132 L0.4031,23.0292 C0.4071,23.2712 0.4101,23.5132 0.4131,23.7542 C0.4191,24.2602 0.4251,24.7662 0.4321,25.2712 C0.4401,25.8862 0.4401,26.5022 0.4611,27.1172 C0.4641,27.2542 0.4881,27.3752 0.5811,27.4822 C0.6571,27.5722 0.7621,27.6302 0.8791,27.6462 C0.8891,27.6782 0.9011,27.7092 0.9131,27.7402 C1.0051,27.9812 1.1231,28.2012 1.2551,28.4202 C1.4041,28.6662 1.5821,28.9002 1.7711,29.1152 C2.1311,29.5252 2.4991,29.9272 2.8551,30.3402 C3.2301,30.7752 3.6031,31.2132 3.9681,31.6582 C4.3201,32.0882 4.6661,32.5252 5.0261,32.9482 C5.2151,33.1682 5.3991,33.3922 5.5901,33.6092 C5.8581,33.9112 6.1261,34.2122 6.4211,34.4872 C6.6821,34.7322 6.9711,35.0112 7.3141,35.1382 C7.5221,35.2152 7.7351,35.2462 7.9521,35.2032 C7.9291,35.2262 7.9061,35.2492 7.8831,35.2722 C7.8021,35.3542 7.7261,35.4382 7.6621,35.5342 C7.5891,35.6412 7.5751,35.7712 7.5541,35.8942 C7.5271,36.0622 7.6341,36.2552 7.7701,36.3472 C7.8711,36.4152 8.0291,36.4572 8.1481,36.4142 C8.2341,36.3842 8.3381,36.3612 8.4131,36.3112 C8.4701,36.2732 8.5281,36.2332 8.5831,36.1922 C8.6511,36.1372 8.7161,36.0782 8.7821,36.0202 C8.8631,35.9482 8.9431,35.8742 9.0251,35.8042 C9.1671,35.6832 9.3081,35.5682 9.4541,35.4552 C9.6231,35.3472 9.7931,35.2382 9.9731,35.1492 C10.0711,35.0992 10.1701,35.0502 10.2681,35.0022 C10.3221,34.9772 10.3751,34.9522 10.4271,34.9272 C10.5561,34.8642 10.6681,34.7892 10.7801,34.7012 C10.9221,34.5902 10.9761,34.3702 10.9431,34.2022 C10.9251,34.1142 10.8881,34.0372 10.8321,33.9692 C10.8021,33.9342 10.7691,33.9052 10.7331,33.8802 C10.9781,33.6272 11.2191,33.3712 11.4621,33.1162 C11.5211,33.0522 11.5811,32.9882 11.6401,32.9242 C11.7711,32.7822 11.9131,32.6372 12.0111,32.4712 C12.0491,32.4102 12.0831,32.3472 12.1081,32.2802 C12.1201,32.2572 12.1301,32.2342 12.1411,32.2122 C12.1591,32.1432 12.1731,32.0752 12.1841,32.0042 C12.1841,31.9982 12.1831,31.9922 12.1831,31.9852 C12.1971,31.9582 12.2101,31.9302 12.2191,31.8992 C12.2611,31.7692 12.2551,31.5762 12.1841,31.4542 C12.1281,31.3562 12.0691,31.2682 11.9901,31.1882 C11.9131,31.1092 11.8451,31.0232 11.7731,30.9402 C11.6051,30.7472 11.4321,30.5602 11.2571,30.3742 C10.9931,30.0942 10.7251,29.8162 10.4561,29.5412 C10.2301,29.3122 10.0041,29.0842 9.7731,28.8612 C9.6391,28.7322 9.5051,28.6052 9.3671,28.4792 C9.2521,28.3732 9.1381,28.2642 9.0151,28.1672 C8.9361,28.1052 8.8611,28.0422 8.7701,27.9962 C8.6951,27.9462 8.6121,27.9182 8.5201,27.9152 C8.4981,27.9122 8.4741,27.9112 8.4511,27.9082 C8.3911,27.9012 8.3321,27.9102 8.2771,27.9302 C8.2661,27.8802 8.2551,27.8292 8.2441,27.7802 C8.1441,27.3132 8.0441,26.8482 7.9431,26.3822 C7.3671,23.7352 6.7681,21.0922 6.1631,18.4512 C6.1011,18.1852 5.8531,17.9982 5.5771,18.0642 C5.3121,18.1292 5.1281,18.4182 5.1891,18.6862 C5.5081,20.0792 5.8251,21.4722 6.1401,22.8652 C6.3761,23.9022 6.6041,24.9412 6.8301,25.9802 C6.9471,26.5162 7.0641,27.0532 7.1791,27.5902 C7.2411,27.8762 7.3021,28.1622 7.3641,28.4492 C7.3961,28.6002 7.4281,28.7522 7.4621,28.9042 C7.4681,28.9352 7.4751,28.9672 7.4821,28.9982 C7.4871,29.1252 7.5191,29.2532 7.5571,29.3732 C7.5971,29.5042 7.6451,29.6122 7.7631,29.6922 C7.8751,29.7662 8.0131,29.7912 8.1421,29.7602 C8.2711,29.7292 8.3831,29.6452 8.4551,29.5352 C8.4691,29.5122 8.4821,29.4882 8.4921,29.4652 C8.5031,29.4732 8.5141,29.4822 8.5251,29.4912 C8.6581,29.5942 8.7861,29.7022 8.9121,29.8132 C9.3081,30.1732 9.6981,30.5412 10.0821,30.9142 C10.4111,31.2362 10.7351,31.5622 11.0691,31.8802 C11.0941,31.9132 11.1191,31.9472 11.1431,31.9812 C11.1291,32.0012 11.1141,32.0222 11.0981,32.0422 C10.9301,32.2352 10.7511,32.4182 10.5751,32.6032 C10.4521,32.7342 10.3301,32.8682 10.2031,32.9962 C9.9271,33.2752 9.6531,33.5542 9.3751,33.8292 C9.2611,33.8382 9.1481,33.8502 9.0381,33.8702 C8.8491,33.9022 8.6611,33.9352 8.4751,33.9892 C8.2401,34.0572 8.0061,34.1412 7.7661,34.1912 C7.7251,34.1802 7.6871,34.1672 7.6481,34.1522 C7.5021,34.0632 7.3671,33.9582 7.2371,33.8472 C6.9651,33.5972 6.7131,33.3262 6.4671,33.0512 C5.7021,32.1872 4.9981,31.2722 4.2501,30.3932 C3.8861,29.9662 3.5241,29.5382 3.1511,29.1202 C2.7951,28.7222 2.4311,28.3312 2.1221,27.8942 C1.9941,27.6792 1.8811,27.4602 1.7941,27.2232 C1.7011,26.9142 1.6461,26.6002 1.6061,26.2812 C1.5811,26.0822 1.5461,25.8822 1.5311,25.6822 C1.5171,25.4972 1.5051,25.3112 1.4911,25.1262 C1.4981,24.5192 1.5041,23.9122 1.5081,23.3052 C1.5191,22.0802 1.5271,20.8552 1.5321,19.6302 C1.5731,19.1272 1.6121,18.6222 1.6641,18.1202 C1.7741,17.0382 1.9031,15.9572 1.9851,14.8732 C2.0351,14.2142 2.0821,13.5542 2.1341,12.8942 C2.1531,12.6462 2.1591,12.3962 2.1721,12.1472 C2.1891,11.7812 2.2081,11.4142 2.2261,11.0472 C2.2511,10.5552 2.2671,10.0632 2.2791,9.5712 C2.2951,8.8952 2.3251,8.2172 2.2871,7.5392 C2.2931,7.4502 2.2751,7.3652 2.2371,7.2832 C2.2001,7.2032 2.1431,7.1382 2.0711,7.0882" id="Fill-13" fill="#009A27"></path>
                        <g id="Group-17" transform="translate(21.000000, 0.431900)">
                            <mask id="mask-2" fill="white">
                                <use xlink:href="#path-1"></use>
                            </mask>
                            <g id="Clip-16"></g>
                            <path d="M16.6438,12.9611 L16.6438,12.9611 C16.6438,12.9501 16.6428,12.9391 16.6428,12.9291 C16.6438,12.9651 16.6458,13.0021 16.6488,13.0391 C16.6468,13.0121 16.6448,12.9861 16.6438,12.9611 L16.6438,12.9611 Z M15.8948,15.6161 L15.8948,15.6161 C15.8928,15.5821 15.8908,15.5481 15.8888,15.5151 C15.8908,15.5481 15.8928,15.5821 15.8948,15.6151 L15.8948,15.6151 L15.8948,15.6161 Z M15.8948,15.6181 L15.8948,15.6181 C15.8938,15.5971 15.8928,15.5771 15.8928,15.5571 C15.8928,15.5771 15.8938,15.5971 15.8948,15.6171 L15.8948,15.6161 C15.8948,15.6191 15.8958,15.6231 15.8958,15.6261 L15.8958,15.6241 C15.8968,15.6351 15.8968,15.6471 15.8978,15.6581 C15.8968,15.6471 15.8968,15.6351 15.8958,15.6231 C15.8958,15.6211 15.8958,15.6201 15.8948,15.6181 L15.8948,15.6181 Z M15.9828,16.9211 L15.9828,16.9211 C15.9828,16.9171 15.9828,16.9141 15.9818,16.9111 C15.9828,16.9211 15.9838,16.9301 15.9838,16.9401 C15.9868,16.9781 15.9898,17.0161 15.9918,17.0541 C15.9898,17.0101 15.9858,16.9651 15.9828,16.9211 L15.9828,16.9211 Z M11.2168,15.6631 L11.2168,15.6631 C11.2608,15.9151 11.3068,16.1661 11.3518,16.4181 C11.0808,16.3621 10.8098,16.3081 10.5368,16.2551 C10.3168,16.2121 10.0968,16.1701 9.8768,16.1291 C9.9178,16.1161 9.9578,16.1041 9.9988,16.0911 C10.4098,15.9641 10.8158,15.8221 11.2168,15.6631 L11.2168,15.6631 Z M14.4098,17.0271 L14.4098,17.0271 C14.4138,17.0401 14.4178,17.0531 14.4218,17.0671 C13.9848,16.9841 13.5508,16.8881 13.1168,16.7921 C13.1058,16.5231 13.0958,16.2551 13.0858,15.9861 C13.0708,15.5831 13.0548,15.1791 13.0378,14.7761 C13.3058,14.6201 13.5678,14.4551 13.8248,14.2821 L13.9338,14.8171 C13.9888,15.0861 14.0428,15.3551 14.1008,15.6231 C14.2008,16.0911 14.2818,16.5661 14.4098,17.0271 L14.4098,17.0271 Z M10.7618,12.9471 L10.7618,12.9471 C10.8458,13.4621 10.9308,13.9761 11.0168,14.4901 C10.9598,14.5141 10.9038,14.5381 10.8478,14.5611 C10.8308,14.0601 10.8108,13.5611 10.7698,13.0611 C10.7678,13.0241 10.7648,12.9861 10.7618,12.9471 L10.7618,12.9471 Z M16.5698,11.9011 L16.5698,11.9011 C16.5718,11.9191 16.5738,11.9371 16.5768,11.9551 C16.5778,11.9771 16.5798,11.9991 16.5808,12.0211 C16.5818,12.0691 16.5858,12.1161 16.5898,12.1641 C16.5918,12.2151 16.5968,12.2651 16.6008,12.3171 C16.5988,12.3631 16.6018,12.4101 16.6098,12.4571 C16.6108,12.4741 16.6118,12.4921 16.6138,12.5091 L16.6138,12.5171 C16.6148,12.5261 16.6158,12.5351 16.6158,12.5431 L16.6128,12.4961 C16.6148,12.5391 16.6178,12.5821 16.6208,12.6251 C16.6188,12.6691 16.6208,12.7151 16.6288,12.7591 C16.6298,12.7881 16.6318,12.8181 16.6368,12.8461 C16.6368,12.8541 16.6378,12.8611 16.6388,12.8691 C16.6388,12.8781 16.6398,12.8861 16.6398,12.8951 C16.6398,12.8891 16.6388,12.8821 16.6388,12.8761 L16.6388,12.8801 L16.6388,12.8721 C16.6378,12.8651 16.6378,12.8581 16.6368,12.8501 L16.6368,12.8511 C16.6378,12.8611 16.6388,12.8711 16.6388,12.8811 C16.6398,12.8901 16.6408,12.8991 16.6418,12.9081 C16.6408,12.9011 16.6408,12.8931 16.6398,12.8851 C16.6408,12.8951 16.6408,12.9041 16.6418,12.9131 C16.6418,12.9201 16.6428,12.9261 16.6428,12.9321 C16.6428,12.9281 16.6428,12.9231 16.6418,12.9191 C16.6428,12.9341 16.6438,12.9481 16.6438,12.9631 L16.6468,12.9961 C16.6458,12.9891 16.6448,12.9821 16.6448,12.9751 C16.6498,13.0491 16.6548,13.1251 16.6588,13.2001 C16.6428,13.1261 16.6268,13.0511 16.6098,12.9761 C16.5458,12.6721 16.4808,12.3661 16.4158,12.0611 C16.4678,12.0081 16.5188,11.9541 16.5698,11.9011 L16.5698,11.9011 Z M18.3248,10.8901 L18.3248,10.8901 C18.3278,10.9211 18.3298,10.9511 18.3318,10.9821 C18.3318,10.9791 18.3318,10.9751 18.3308,10.9721 C18.3318,10.9771 18.3318,10.9821 18.3318,10.9861 C18.3328,10.9931 18.3328,11.0001 18.3338,11.0061 C18.3338,11.0131 18.3348,11.0191 18.3348,11.0261 L18.3348,11.0211 C18.3358,11.0341 18.3368,11.0481 18.3368,11.0611 C18.3378,11.0641 18.3378,11.0671 18.3378,11.0701 L18.3378,11.0671 C18.3378,11.0741 18.3388,11.0811 18.3388,11.0891 L18.3388,11.0881 C18.3378,11.0721 18.3368,11.0551 18.3358,11.0391 C18.3358,11.0371 18.3358,11.0341 18.3348,11.0321 C18.3348,11.0271 18.3348,11.0221 18.3338,11.0171 C18.3348,11.0221 18.3348,11.0271 18.3348,11.0311 L18.3318,10.9801 C18.3308,10.9741 18.3308,10.9691 18.3308,10.9641 C18.3298,10.9591 18.3298,10.9551 18.3298,10.9511 L18.3298,10.9601 C18.3288,10.9371 18.3268,10.9131 18.3248,10.8901 L18.3248,10.8901 Z M6.3808,14.5401 L6.3808,14.5401 C6.4418,14.8601 6.4958,15.1821 6.5648,15.5001 C6.5238,15.5041 6.4818,15.5081 6.4408,15.5151 C6.3388,15.5331 6.1868,15.6151 6.1128,15.6841 C6.0658,15.7331 6.0228,15.7861 5.9858,15.8431 C5.8678,16.0141 5.8568,16.2541 5.9458,16.4391 C6.0038,16.5601 6.1328,16.7031 6.2728,16.7291 C6.5158,16.7741 6.7578,16.8111 7.0008,16.8471 C7.0438,16.9261 7.0878,17.0061 7.1308,17.0861 C7.2508,17.3151 7.4948,17.4501 7.7548,17.3861 C7.9418,17.3421 8.0928,17.2011 8.1648,17.0271 C8.3518,17.0571 8.5388,17.0891 8.7258,17.1201 C9.6638,17.2911 10.6008,17.4661 11.5348,17.6651 C11.5498,17.6691 11.5638,17.6721 11.5798,17.6751 C11.5968,17.7751 11.6118,17.8751 11.6278,17.9761 C11.4918,17.9921 11.3548,18.0071 11.2198,18.0251 C11.0198,18.0421 10.8198,18.0611 10.6208,18.0791 C10.3458,18.1041 10.0708,18.1321 9.7958,18.1451 C9.3688,18.1621 8.9438,18.1821 8.5178,18.1991 C8.2498,18.2111 7.9798,18.1991 7.7128,18.1971 C7.3928,18.1941 7.0748,18.1951 6.7558,18.1891 C6.1148,18.1771 5.4738,18.1581 4.8328,18.1571 C4.5248,18.1561 4.2178,18.1521 3.9098,18.1551 C4.0388,18.0471 4.1208,17.8851 4.1308,17.7141 C4.1518,17.3481 4.1618,16.9861 4.1488,16.6191 C4.1398,16.3431 4.1258,16.0671 4.1168,15.7901 C4.1098,15.5711 4.1038,15.3531 4.0968,15.1351 C4.0538,13.7731 4.0088,12.4101 3.9628,11.0471 C3.9798,11.1971 3.9968,11.3471 4.0138,11.4981 C4.1878,13.0911 4.3408,14.6871 4.5278,16.2801 C4.5588,16.5331 4.8078,16.7301 5.0528,16.7381 C5.2678,16.7461 5.4338,16.6291 5.5578,16.4641 C5.7248,16.2441 5.7748,15.9371 5.7648,15.6651 C5.7558,15.4401 5.7318,15.2161 5.7148,14.9911 C5.7128,14.9561 5.7118,14.9221 5.7108,14.8871 C5.6678,13.4741 5.6208,12.0611 5.5738,10.6491 L5.5538,9.9821 C5.6278,10.4441 5.7008,10.9061 5.7868,11.3651 C5.9308,12.1401 6.0738,12.9141 6.2188,13.6891 C6.2708,13.9731 6.3258,14.2571 6.3808,14.5401 L6.3808,14.5401 Z M13.4738,12.5611 L13.4738,12.5611 C13.5068,12.7271 13.5408,12.8921 13.5738,13.0571 L13.5508,13.0751 C13.3648,13.2071 13.1768,13.3341 12.9838,13.4561 C12.9808,13.3891 12.9778,13.3211 12.9768,13.2541 C12.9298,12.1041 12.8648,10.9541 12.8118,9.8041 C12.7978,9.4841 12.7828,9.1631 12.7688,8.8431 L12.8008,9.0151 C13.0268,10.1961 13.2338,11.3831 13.4738,12.5611 L13.4738,12.5611 Z M15.6488,8.3061 L15.6488,8.3061 C15.7578,8.3911 15.8648,8.4791 15.9708,8.5701 C16.1128,8.7011 16.2548,8.8371 16.3878,8.9811 C16.4118,9.4311 16.4358,9.8811 16.4668,10.3311 C16.4408,10.3611 16.4168,10.3911 16.3918,10.4221 C16.4068,10.4031 16.4228,10.3831 16.4378,10.3641 C16.3378,10.4811 16.2338,10.5941 16.1278,10.7071 C15.9888,10.0571 15.8668,9.4031 15.7368,8.7511 C15.7068,8.6021 15.6778,8.4541 15.6488,8.3061 L15.6488,8.3061 Z M13.8518,7.0331 L13.8518,7.0331 C13.9128,7.0731 13.9738,7.1141 14.0338,7.1551 C14.0638,7.5421 14.1488,7.9231 14.1828,8.3091 C14.1898,8.4101 14.1988,8.5091 14.2068,8.6091 C14.2458,9.0611 14.2838,9.5141 14.3218,9.9661 C14.3688,10.5051 14.4128,11.0441 14.4558,11.5831 C14.2238,10.3571 13.9908,9.1311 13.7578,7.9041 C13.6888,7.5481 13.6218,7.1911 13.5538,6.8351 L13.8518,7.0331 Z M9.6678,14.7111 L9.6678,14.7111 C9.7088,14.7851 9.7608,14.8531 9.8108,14.9211 C9.2938,15.0801 8.7678,15.2111 8.2368,15.3101 C8.2268,15.0451 8.2148,14.7791 8.2058,14.5131 C8.1948,14.1711 8.1848,13.8281 8.1748,13.4851 C8.1318,12.1271 8.0898,10.7711 8.0468,9.4131 C8.0258,8.7671 8.0248,8.1201 8.0158,7.4741 C8.0088,7.0951 8.0028,6.7161 7.9958,6.3371 C7.9938,6.1851 7.9958,6.0341 7.9968,5.8821 C7.9998,5.8961 8.0018,5.9091 8.0048,5.9231 C8.1338,6.6041 8.2708,7.2851 8.3908,7.9691 C8.5228,8.7351 8.6548,9.5011 8.7868,10.2661 C8.8838,10.8271 8.9818,11.3851 9.0808,11.9451 C9.1458,12.3231 9.2128,12.7011 9.2788,13.0791 C9.3228,13.3301 9.3558,13.5821 9.4008,13.8331 C9.4378,14.0461 9.4878,14.2521 9.5588,14.4571 C9.5898,14.5461 9.6208,14.6291 9.6678,14.7111 L9.6678,14.7111 Z M15.4988,5.9521 L15.4988,5.9521 C15.6698,5.9701 15.8408,6.0021 16.0138,6.0021 C16.0378,6.0021 16.0628,6.0021 16.0878,6.0001 C16.1498,5.9971 16.2138,5.9921 16.2758,5.9861 C16.2698,6.1681 16.2678,6.3511 16.2708,6.5351 C16.2768,6.7941 16.2858,7.0521 16.2968,7.3101 C16.2528,7.2761 16.2078,7.2411 16.1618,7.2071 C15.8768,6.9911 15.5858,6.7811 15.2918,6.5751 C15.2738,6.4931 15.2558,6.4111 15.2368,6.3301 C15.1818,6.0781 14.9788,5.8801 14.7138,5.8711 C14.6048,5.8671 14.4868,5.9001 14.3888,5.9611 L14.3708,5.9491 C14.2908,5.8971 14.2108,5.8441 14.1318,5.7921 C14.2158,5.8021 14.2998,5.8131 14.3848,5.8231 C14.7558,5.8671 15.1268,5.9101 15.4988,5.9521 L15.4988,5.9521 Z M8.9538,4.6961 L8.9538,4.6961 L9.0688,4.6961 C9.0588,4.8851 9.0508,5.0741 9.0498,5.2641 C9.0258,5.1301 9.0048,4.9951 8.9818,4.8611 C8.9728,4.8061 8.9638,4.7511 8.9538,4.6961 L8.9538,4.6961 Z M11.3218,5.1141 L11.3218,5.1141 C11.3478,5.2381 11.4048,5.3301 11.4868,5.4131 C11.4988,5.8571 11.5178,6.3021 11.5378,6.7451 C11.5598,7.2221 11.5808,7.6991 11.6028,8.1771 C11.6408,9.0021 11.6778,9.8261 11.7168,10.6511 C11.7408,11.1441 11.7638,11.6371 11.7858,12.1311 C11.6148,11.0831 11.4488,10.0351 11.2808,8.9881 C11.1838,8.3811 11.0788,7.7751 10.9768,7.1691 C10.9278,6.8671 10.8758,6.5651 10.8258,6.2621 C10.7618,5.8711 10.7148,5.4751 10.6318,5.0871 C10.6028,4.9531 10.5718,4.8191 10.5338,4.6861 C10.5628,4.6861 10.5928,4.6851 10.6218,4.6851 C10.8838,4.6831 11.1458,4.6671 11.4078,4.6531 C11.3218,4.7861 11.2938,4.9691 11.3218,5.1141 L11.3218,5.1141 Z M5.7578,4.6301 L5.7578,4.6301 C6.1408,4.6381 6.5238,4.6491 6.9078,4.6591 C6.8918,4.7821 6.8798,4.9051 6.8738,5.0301 C6.8548,5.4151 6.8518,5.8031 6.8568,6.1891 C6.8618,6.5481 6.8688,6.9071 6.8748,7.2661 C6.8868,7.9631 6.8868,8.6601 6.9088,9.3551 C6.9318,10.0641 6.9538,10.7731 6.9758,11.4821 C6.9658,11.4321 6.9568,11.3821 6.9468,11.3321 C6.8418,10.7661 6.7538,10.1971 6.6578,9.6301 C6.5598,9.0341 6.4608,8.4381 6.3608,7.8421 C6.2928,7.4301 6.2238,7.0181 6.1548,6.6061 C6.1078,6.3261 6.0738,6.0441 6.0218,5.7651 C5.9808,5.5361 5.9308,5.3101 5.8488,5.0911 C5.7878,4.9291 5.7038,4.7801 5.6258,4.6261 C5.6698,4.6271 5.7138,4.6281 5.7578,4.6301 L5.7578,4.6301 Z M13.9768,4.4191 L13.9768,4.4191 C14.4628,4.3721 14.9538,4.3531 15.4398,4.4211 C15.7798,4.4891 16.1078,4.5911 16.4348,4.7031 C16.4258,4.7121 16.4158,4.7191 16.4058,4.7271 C16.3738,4.7471 16.3418,4.7651 16.3088,4.7821 C16.2688,4.7931 16.2298,4.8021 16.1898,4.8101 C15.9398,4.8161 15.6958,4.7791 15.4468,4.7511 C15.3058,4.7351 15.1638,4.7191 15.0228,4.7031 C14.7728,4.6741 14.5238,4.6461 14.2748,4.6141 C13.9538,4.5721 13.6318,4.5341 13.3098,4.4911 C13.5318,4.4671 13.7538,4.4441 13.9768,4.4191 L13.9768,4.4191 Z M3.2538,3.6991 L3.2538,3.6991 C3.2468,3.7361 3.2398,3.7711 3.2328,3.8071 C3.2398,3.7711 3.2468,3.7361 3.2538,3.6991 L3.2538,3.6991 Z M10.2768,2.1971 L10.2768,2.1971 C10.8028,2.2051 11.3278,2.2151 11.8528,2.2261 C11.5888,2.2791 11.3238,2.3321 11.0598,2.3851 C10.4068,2.5171 9.7498,2.6271 9.0928,2.7431 C8.4568,2.8551 7.8158,2.9441 7.1778,3.0391 C6.8878,3.0821 6.5968,3.1201 6.3068,3.1601 C6.1108,3.1871 5.9148,3.2141 5.7188,3.2421 C5.4048,3.2851 5.0938,3.3191 4.7908,3.4101 C4.5358,3.4871 4.3508,3.6991 4.3348,3.9711 C4.3228,4.1801 4.4368,4.4351 4.6378,4.5281 C4.5998,4.5801 4.5718,4.6361 4.5588,4.6961 C4.4818,5.0451 4.3838,5.3891 4.3548,5.7451 L4.3548,5.7491 C4.3398,5.7021 4.3238,5.6551 4.3068,5.6091 C4.2348,5.4171 4.1538,5.2311 4.0798,5.0401 C3.9878,4.8011 3.6948,4.6821 3.4568,4.7391 C3.2958,4.7781 3.1438,4.8951 3.0668,5.0461 L3.0408,4.9851 C3.1058,4.5551 3.1758,4.1261 3.2548,3.6971 C3.3198,3.3611 3.3928,3.0271 3.4788,2.6951 C3.5538,2.4041 3.6368,2.1211 3.7538,1.8461 C3.7688,1.8171 3.7858,1.7881 3.8028,1.7591 C4.1198,1.7641 4.4348,1.8071 4.7498,1.8461 C5.0058,1.8771 5.2628,1.9091 5.5188,1.9371 C6.0068,1.9911 6.4958,2.0451 6.9858,2.0771 C7.3028,2.0981 7.6188,2.1201 7.9368,2.1411 C8.1888,2.1571 8.4418,2.1561 8.6938,2.1651 C9.2228,2.1801 9.7498,2.1891 10.2768,2.1971 L10.2768,2.1971 Z M4.4098,0.6111 L4.4098,0.6111 C4.2418,0.5901 4.0638,0.5681 3.8888,0.5681 C3.6958,0.5681 3.5078,0.5951 3.3368,0.6821 C3.1448,0.7801 2.9638,0.9291 2.8578,1.1211 C2.7538,1.3111 2.6568,1.5101 2.5858,1.7151 C2.4278,2.1701 2.3168,2.6461 2.2228,3.1191 C2.1608,3.4231 2.0998,3.7291 2.0458,4.0341 C2.0428,3.9841 2.0408,3.9331 2.0378,3.8821 C2.0288,3.7001 2.0278,3.5221 2.0338,3.3401 C2.0368,3.2481 2.0378,3.1581 2.0358,3.0661 C2.0328,2.9681 2.0308,2.8401 2.0028,2.7431 C1.9738,2.6421 1.9428,2.5441 1.8998,2.4481 C1.8508,2.3361 1.7618,2.2641 1.6658,2.1921 C1.5068,2.0681 1.2658,2.0751 1.0948,2.1671 C0.9138,2.2641 0.7828,2.4661 0.7768,2.6731 C0.7488,3.6851 0.7868,4.6971 0.8078,5.7091 C0.8228,6.5021 0.8408,7.2941 0.8618,8.0861 C0.8998,9.4931 0.9488,10.8991 0.9988,12.3061 C1.0218,12.9901 1.0538,13.6731 1.0798,14.3571 C1.0878,14.5531 1.0958,14.7511 1.1018,14.9471 C1.0998,15.0821 1.0978,15.2161 1.0948,15.3511 C1.0908,15.5111 1.0918,15.6731 1.0908,15.8341 C1.0888,16.1031 1.0708,16.3791 1.1258,16.6431 C1.1668,16.8411 1.3048,17.0001 1.4818,17.0671 C1.4928,17.3941 1.5068,17.7211 1.5308,18.0481 C1.5398,18.1731 1.5438,18.3001 1.5648,18.4241 C1.5838,18.5341 1.6078,18.6321 1.6438,18.7391 C1.6778,18.8341 1.7258,18.9481 1.7958,19.0221 C1.8668,19.0971 1.9348,19.1661 2.0288,19.2111 C2.0588,19.2311 2.0898,19.2481 2.1218,19.2621 C2.1738,19.3991 2.2398,19.5281 2.3478,19.6411 C2.5268,19.8301 2.7928,19.8911 3.0288,19.7641 C3.1838,19.6811 3.3038,19.5211 3.3368,19.3461 C3.5188,19.3431 3.7008,19.3411 3.8838,19.3411 C5.2468,19.3451 6.6118,19.3761 7.9758,19.3871 C8.6188,19.3931 9.2628,19.3521 9.9048,19.3241 C10.2348,19.3091 10.5658,19.2651 10.8938,19.2361 C11.2268,19.2061 11.5548,19.1671 11.8838,19.1241 L11.8858,19.1241 C11.9108,19.1981 11.9398,19.2681 11.9768,19.3391 C12.0278,19.4331 12.0998,19.5221 12.1608,19.6101 C12.3098,19.8211 12.6328,19.8481 12.8438,19.7341 C13.0228,19.6371 13.1558,19.4351 13.1608,19.2271 C13.1638,19.1241 13.1658,19.0221 13.1678,18.9191 C13.3978,18.8771 13.6288,18.8341 13.8588,18.7891 C14.2988,18.7041 14.7408,18.6221 15.1798,18.5271 C15.2858,18.5771 15.4078,18.5921 15.5328,18.5621 C15.6538,18.5331 15.7648,18.4611 15.8468,18.3641 C16.0648,18.2771 16.2188,18.0651 16.2318,17.8271 C16.2438,17.6371 16.1598,17.4231 15.9958,17.3151 C15.9958,17.1901 15.9918,17.0651 15.9838,16.9401 C15.9838,16.9301 15.9828,16.9211 15.9818,16.9111 L15.9818,16.9101 L15.9818,16.9111 L15.9818,16.9101 L15.9818,16.9101 L15.9818,16.9091 L15.9818,16.9011 L15.9818,16.9101 C15.9838,16.8661 15.9808,16.8211 15.9748,16.7781 C15.9768,16.7321 15.9738,16.6861 15.9658,16.6401 C15.9648,16.6321 15.9638,16.6241 15.9628,16.6161 L15.9628,16.6111 C15.9648,16.5661 15.9618,16.5201 15.9538,16.4751 C15.9538,16.4431 15.9518,16.4091 15.9468,16.3761 C15.9468,16.3731 15.9468,16.3691 15.9458,16.3651 C15.9468,16.3311 15.9448,16.2981 15.9398,16.2641 C15.9378,16.2241 15.9358,16.1841 15.9328,16.1441 C15.9338,16.1071 15.9318,16.0691 15.9248,16.0301 C15.9248,16.0181 15.9238,16.0051 15.9228,15.9911 C15.9238,15.9471 15.9208,15.9031 15.9118,15.8611 L15.9118,15.8521 C15.9108,15.8471 15.9108,15.8421 15.9098,15.8371 L15.9098,15.8361 L15.9098,15.8181 C15.9058,15.7661 15.9018,15.7151 15.8988,15.6631 C15.8968,15.6471 15.8958,15.6311 15.8948,15.6151 L15.8948,15.6141 C15.8738,15.2941 15.8518,14.9741 15.8288,14.6551 C15.8398,14.6981 15.8508,14.7411 15.8608,14.7841 C15.9448,15.1281 16.0278,15.4711 16.1098,15.8151 C16.1908,16.1471 16.2758,16.4831 16.3758,16.8111 C16.4428,17.0351 16.5118,17.2611 16.5998,17.4781 C16.6838,17.6841 16.7958,17.8671 16.9078,18.0581 C16.9858,18.1941 17.0808,18.2981 17.2348,18.3491 C17.3328,18.3801 17.4318,18.3831 17.5318,18.3591 C17.7688,18.3021 17.9128,18.1161 17.9688,17.8951 C17.9708,17.8971 17.9728,17.8981 17.9748,17.8991 C18.1848,18.0511 18.4838,18.0071 18.6668,17.8361 C18.7458,17.7621 18.8008,17.6751 18.8338,17.5731 C18.8668,17.4711 18.8728,17.3681 18.8528,17.2631 C18.7968,16.5651 18.7168,15.8701 18.6348,15.1731 C18.6308,15.1341 18.6258,15.0961 18.6218,15.0581 C18.5818,14.5381 18.5398,14.0181 18.5018,13.4991 C18.4998,13.4471 18.4968,13.3961 18.4918,13.3461 C18.4928,13.3061 18.4908,13.2661 18.4838,13.2271 C18.4818,13.2081 18.4808,13.1891 18.4788,13.1711 C18.4808,13.1891 18.4818,13.2071 18.4828,13.2251 L18.4828,13.2221 C18.4808,13.2001 18.4798,13.1781 18.4778,13.1561 C18.4738,13.0781 18.4688,13.0001 18.4628,12.9211 C18.4618,12.8931 18.4598,12.8671 18.4578,12.8421 C18.4588,12.8011 18.4568,12.7601 18.4488,12.7191 C18.4478,12.7071 18.4468,12.6941 18.4468,12.6811 C18.4478,12.6381 18.4458,12.5941 18.4368,12.5511 C18.4278,12.3941 18.4168,12.2371 18.4058,12.0811 C18.4018,12.0261 18.3988,11.9701 18.3948,11.9151 C18.3948,11.8481 18.3898,11.7811 18.3828,11.7141 L18.3828,11.6951 C18.3828,11.6651 18.3808,11.6341 18.3758,11.6041 C18.3728,11.5591 18.3678,11.5131 18.3648,11.4681 C18.3628,11.4461 18.3618,11.4251 18.3598,11.4041 C18.3608,11.4141 18.3618,11.4231 18.3628,11.4311 C18.3608,11.4071 18.3588,11.3841 18.3568,11.3601 C18.3558,11.3331 18.3538,11.3051 18.3518,11.2781 C18.3528,11.2911 18.3528,11.3031 18.3538,11.3151 C18.3528,11.2901 18.3518,11.2651 18.3498,11.2401 L18.3498,11.2331 C18.3518,11.1961 18.3498,11.1601 18.3448,11.1241 C18.3418,11.0831 18.3378,11.0421 18.3338,11.0021 C18.2868,10.0661 18.2408,9.1291 18.1958,8.1941 C18.1738,7.7231 18.1448,7.2551 18.1188,6.7841 C18.1088,6.5901 18.0988,6.3951 18.0878,6.2011 C18.0708,5.9001 18.0478,5.5941 18.0038,5.2951 C18.0028,5.2911 18.0018,5.2871 18.0018,5.2821 C18.1438,5.3381 18.2848,5.3941 18.4268,5.4501 C18.4348,5.7741 18.4458,6.0991 18.4568,6.4231 C18.4898,7.4591 18.5218,8.4961 18.5578,9.5331 C18.5968,10.7491 18.6288,11.9671 18.6918,13.1821 C18.7138,13.6091 18.7358,14.0361 18.7588,14.4631 C18.7738,14.7531 18.7828,15.0471 18.8068,15.3381 C18.8408,15.7441 18.8748,16.1521 18.9088,16.5591 C18.9558,17.1091 19.0348,17.6541 19.1088,18.2001 C19.1428,18.4541 19.3838,18.6511 19.6338,18.6591 C19.8228,18.6661 20.0478,18.5601 20.1378,18.3851 C20.1998,18.2681 20.2858,18.1431 20.3128,18.0121 C20.3468,17.8581 20.3818,17.7011 20.3938,17.5451 C20.4148,17.2951 20.4128,17.0451 20.4038,16.7941 C20.3958,16.5731 20.3938,16.3521 20.3928,16.1311 C20.3908,15.6871 20.3898,15.2441 20.3878,14.8011 C20.3758,11.5491 20.3438,8.2981 20.3128,5.0471 C20.3118,4.8911 20.2798,4.7491 20.1768,4.6271 C20.0778,4.5111 19.9328,4.4411 19.7798,4.4361 C19.7508,4.4351 19.7208,4.4361 19.6908,4.4411 C19.6788,4.3361 19.6648,4.2311 19.6508,4.1261 C19.6168,3.8481 19.5918,3.5761 19.4748,3.3181 C19.3678,3.0831 19.0998,2.9571 18.8508,3.0171 C18.5978,3.0781 18.4038,3.3181 18.3938,3.5771 C18.3878,3.7701 18.3868,3.9631 18.3898,4.1551 L18.3888,4.1551 C18.0878,4.0371 17.7878,3.9131 17.4818,3.8061 C17.0018,3.6371 16.5178,3.4391 16.0198,3.3301 C15.5608,3.2281 15.1078,3.1751 14.6398,3.1931 C14.1818,3.2101 13.7288,3.2661 13.2738,3.3181 C13.3228,3.3121 13.3728,3.3071 13.4218,3.3021 C13.3478,3.3101 13.2748,3.3181 13.2018,3.3241 C13.0818,3.3361 12.9618,3.3471 12.8418,3.3591 C12.8208,3.3181 12.7988,3.2791 12.7748,3.2411 C13.3148,3.1311 13.8528,3.0111 14.3928,2.9011 C15.7328,2.6301 17.0788,2.3491 18.4348,2.1711 C18.5768,2.1521 18.7178,2.0281 18.7928,1.9121 C18.8778,1.7791 18.9108,1.6131 18.8798,1.4581 C18.8278,1.1911 18.6168,1.0281 18.3548,0.9991 C18.1738,0.9791 17.9858,1.0111 17.8038,1.0171 C17.7388,1.0201 17.6768,1.0221 17.6118,1.0241 C17.4058,1.0311 17.1998,1.0381 16.9938,1.0451 C16.6588,1.0561 16.3248,1.0611 15.9888,1.0691 C15.4078,1.0831 14.8248,1.0901 14.2438,1.0821 C12.9448,1.0621 11.6438,1.0301 10.3458,1.0091 C9.6228,0.9981 8.8998,0.9821 8.1778,0.9601 C7.5488,0.9401 6.9218,0.8811 6.2958,0.8241 C5.6658,0.7661 5.0388,0.6841 4.4098,0.6111 L4.4098,0.6111 Z" id="Fill-15" fill="#009A27" mask="url(#mask-2)"></path>
                        </g>
                        <path d="M28.7545,18.1329 L28.7545,18.1329 C28.7565,18.1559 28.7575,18.1779 28.7595,18.2009 C28.7585,18.1839 28.7575,18.1679 28.7565,18.1519 C28.7575,18.1689 28.7585,18.1869 28.7595,18.2039 C28.7615,18.2269 28.7625,18.2509 28.7645,18.2739 C28.7635,18.2609 28.7625,18.2489 28.7615,18.2369 C28.7615,18.2329 28.7615,18.2279 28.7605,18.2239 L28.7575,18.1729 C28.7565,18.1589 28.7555,18.1469 28.7545,18.1329 M29.5295,15.5559 L29.5295,15.5559 C29.4655,15.2759 29.2435,15.1039 28.9745,15.1039 C28.9365,15.1039 28.8975,15.1069 28.8575,15.1139 C28.6365,15.1529 28.4455,15.2299 28.3135,15.4249 C28.2305,15.5459 28.1705,15.6829 28.1405,15.8269 C28.1015,16.0049 28.0945,16.1819 28.0995,16.3599 C28.0765,16.3559 28.0525,16.3539 28.0285,16.3529 C27.8325,16.3459 27.6205,16.4539 27.5235,16.6269 C27.4835,16.6929 27.4495,16.7609 27.4205,16.8319 C27.4105,16.8529 27.4015,16.8739 27.3925,16.8939 C27.3675,17.0119 27.3375,17.1319 27.3275,17.2519 C27.3215,17.3369 27.3195,17.4209 27.3185,17.5059 C27.2235,17.3879 27.0865,17.3119 26.9205,17.3059 C26.7705,17.3009 26.6235,17.3609 26.5145,17.4619 C26.4365,17.5349 26.3805,17.6219 26.3475,17.7249 L26.3475,17.7249 C26.2855,17.8479 26.2175,17.9719 26.1755,18.1019 C26.1255,18.2529 26.0925,18.4089 26.0675,18.5669 C26.0665,18.5719 26.0655,18.5779 26.0645,18.5839 C26.0575,18.3449 26.0495,18.1059 26.0415,17.8669 C26.0375,17.7169 26.0345,17.5679 26.0295,17.4169 C26.0195,17.0929 25.9725,16.7689 25.9395,16.4469 C25.9135,16.1929 25.6595,15.9969 25.4155,15.9879 C25.2655,15.9829 25.1175,16.0419 25.0085,16.1449 C24.9305,16.2169 24.8745,16.3049 24.8415,16.4059 C24.8135,16.5559 24.7845,16.7039 24.7585,16.8519 C24.6645,16.7699 24.5455,16.7209 24.4195,16.7169 C24.2695,16.7119 24.1215,16.7709 24.0125,16.8739 C23.9055,16.9729 23.8115,17.1409 23.8165,17.2929 C23.9145,20.3979 24.0105,23.5009 24.1045,26.6059 C24.1105,26.7629 24.1365,26.9019 24.2425,27.0259 C24.3415,27.1419 24.4865,27.2119 24.6385,27.2169 C24.7885,27.2219 24.9365,27.1629 25.0455,27.0609 C25.1695,26.9459 25.2185,26.8049 25.2425,26.6409 C25.2865,26.3289 25.2775,26.0099 25.3015,25.6949 C25.3135,25.5479 25.3245,25.3999 25.3355,25.2529 C25.4685,25.4219 25.6745,25.5129 25.8985,25.4589 C26.0965,25.4109 26.2655,25.2519 26.3255,25.0559 C26.4095,24.7769 26.4835,24.5019 26.5335,24.2129 C26.5775,23.9539 26.6125,23.6949 26.6455,23.4339 C26.6725,23.2209 26.7005,23.0099 26.7255,22.7979 C26.7565,22.5419 26.7875,22.2869 26.8185,22.0309 C26.8465,22.4909 26.8735,22.9499 26.9015,23.4109 C26.9175,23.6749 26.9335,23.9379 26.9495,24.2019 C26.9575,24.3479 26.9655,24.4939 26.9755,24.6389 C26.9845,24.8049 26.9895,24.9729 27.0045,25.1389 C27.0205,25.3049 27.0525,25.4559 27.0995,25.6149 C27.1415,25.7639 27.2025,25.8899 27.3365,25.9809 C27.4625,26.0669 27.6215,26.0939 27.7705,26.0589 C27.9165,26.0219 28.0465,25.9269 28.1285,25.7999 C28.1865,25.7079 28.2185,25.6069 28.2255,25.4979 C28.2555,25.3359 28.2845,25.1759 28.3015,25.0129 C28.5755,25.0199 28.7745,24.8339 28.8705,24.5939 C29.0275,24.2109 29.0245,23.7919 29.0375,23.3849 C29.0405,23.2829 29.0445,23.1809 29.0485,23.0789 C29.0535,23.1609 29.0575,23.2429 29.0615,23.3249 C29.0705,23.4719 29.0705,23.6179 29.0785,23.7649 C29.0945,24.0029 29.1205,24.2319 29.1625,24.4669 C29.2185,24.7759 29.5285,24.9839 29.8345,24.9099 C30.0995,24.8469 30.2635,24.6119 30.2905,24.3499 C30.3155,24.1039 30.3465,23.8569 30.3545,23.6099 C30.3605,23.4169 30.3665,23.2249 30.3725,23.0329 C30.3795,22.8099 30.3875,22.5869 30.3895,22.3629 C30.3945,21.7909 30.4055,21.2199 30.3995,20.6479 C30.3935,20.0499 30.3925,19.4499 30.3795,18.8509 C30.3635,18.0069 30.3425,17.1649 30.3065,16.3209 C30.2985,16.1619 30.2755,16.0259 30.1685,15.9009 C30.1025,15.8219 30.0195,15.7679 29.9215,15.7349 C29.8065,15.6969 29.6835,15.7019 29.5725,15.7409 C29.5575,15.6789 29.5425,15.6179 29.5295,15.5559" id="Fill-18" fill="#009A27"></path>
                        <path d="M29.4252,24.8632 L29.4252,24.8632 C29.3502,24.7972 29.2352,24.7702 29.1282,24.7702 C29.0802,24.7702 29.0332,24.7752 28.9922,24.7852 C28.8922,24.8102 28.8062,24.8562 28.7322,24.9262 C28.5292,25.1142 28.4942,25.3932 28.5922,25.6402 C28.6022,25.6632 28.6112,25.6852 28.6202,25.7072 L28.2562,25.1332 C28.1712,24.9982 28.0872,24.8952 27.9292,24.8432 C27.7852,24.7952 27.6282,24.8132 27.4942,24.8862 C27.3572,24.9592 27.2532,25.0872 27.2072,25.2362 C27.1632,25.3682 27.1562,25.5632 27.2332,25.6872 L27.3002,25.7942 C27.1052,25.7062 26.8372,25.7572 26.6932,25.9092 C26.6282,25.9772 26.5202,26.0652 26.4782,26.1482 C26.4272,26.2502 26.3772,26.3422 26.3562,26.4532 C26.3432,26.4332 26.3302,26.4142 26.3172,26.3952 C26.2412,26.2692 26.1642,26.1312 26.0622,26.0312 C25.9892,25.9582 25.9172,25.8852 25.8292,25.8312 C25.7642,25.7992 25.6982,25.7672 25.6312,25.7362 C25.5012,25.6752 25.3152,25.7142 25.1962,25.7782 C25.1052,25.8282 25.0322,25.8962 24.9762,25.9832 C24.8642,26.1592 24.8432,26.3922 24.9352,26.5802 C24.9362,26.5812 24.9362,26.5812 24.9362,26.5812 C24.7952,26.5842 24.6522,26.6382 24.5462,26.7362 C24.4302,26.8442 24.3592,26.9972 24.3502,27.1552 C24.3442,27.2592 24.3632,27.3572 24.4082,27.4512 C24.4812,27.5652 24.5522,27.6822 24.6292,27.7962 C25.3862,28.9082 26.1412,30.0182 26.8872,31.1362 C27.6182,32.2272 28.3342,33.3262 29.0542,34.4242 C29.1332,34.5442 29.3132,34.6112 29.4512,34.6152 C29.6012,34.6202 29.7482,34.5612 29.8582,34.4602 C29.9202,34.4332 29.9792,34.3962 30.0302,34.3492 C30.0842,34.2992 30.1272,34.2422 30.1582,34.1812 C30.2132,34.2412 30.2802,34.2882 30.3722,34.3182 C30.5162,34.3652 30.6732,34.3482 30.8072,34.2752 C31.0852,34.1262 31.2092,33.7592 31.0682,33.4742 C30.6152,32.5592 30.1052,31.6722 29.6252,30.7722 C29.3522,30.2622 29.0802,29.7512 28.8062,29.2412 C28.6992,29.0412 28.5922,28.8402 28.4872,28.6392 C28.8512,29.0492 29.2132,29.4612 29.5672,29.8812 C29.7572,30.1052 29.9462,30.3302 30.1362,30.5552 C30.3022,30.7492 30.4552,30.9582 30.6122,31.1582 C30.7492,31.3292 30.8842,31.5022 31.0202,31.6742 C31.6102,32.6082 32.2032,33.5412 32.8232,34.4562 C32.9342,34.6212 33.1842,34.6772 33.3672,34.6332 C33.5492,34.5892 33.7542,34.4252 33.7932,34.2302 C33.8242,34.0682 33.8652,33.9122 33.8132,33.7472 C33.7812,33.6452 33.7542,33.5372 33.7072,33.4402 C33.6292,33.2882 33.5362,33.1472 33.4532,33.0012 C33.4552,32.9832 33.4562,32.9662 33.4562,32.9482 C33.4562,32.7372 33.4772,32.5142 33.4342,32.3062 C33.4032,32.1562 33.3612,32.0092 33.3112,31.8652 C33.3472,31.7922 33.3712,31.7142 33.3762,31.6272 C33.3882,31.4402 33.3572,31.2782 33.2952,31.1032 C33.2222,30.9002 33.1132,30.7122 33.0282,30.5142 C32.9102,30.2362 32.7912,29.9582 32.6722,29.6812 C32.4692,29.2052 32.2602,28.7332 32.0512,28.2612 C31.8382,27.7812 31.6232,27.3012 31.4072,26.8222 C31.3192,26.6252 31.2302,26.4302 31.1422,26.2332 C31.0852,26.1052 31.0262,25.9772 30.9682,25.8492 C30.8612,25.6102 30.7682,25.3422 30.5792,25.1542 C30.4672,25.0422 30.3462,24.9662 30.1822,24.9612 C30.0322,24.9562 29.8852,25.0162 29.7752,25.1182 C29.7562,25.1352 29.7392,25.1542 29.7222,25.1732 C29.7152,25.1632 29.7092,25.1542 29.7022,25.1442 C29.6212,25.0352 29.5272,24.9532 29.4252,24.8632" id="Fill-20" fill="#009A27"></path>
                        <g id="Group-24" transform="translate(22.000000, 10.431900)">
                            <mask id="mask-4" fill="white">
                                <use xlink:href="#path-3"></use>
                            </mask>
                            <g id="Clip-23"></g>
                            <path d="M1.4383,0.2493 C1.5913,0.2543 1.7353,0.3253 1.8343,0.4423 C1.9383,0.5633 1.9713,0.7053 1.9723,0.8613 C1.9823,2.3013 1.9923,3.7413 2.0003,5.1813 C2.1513,5.2943 2.2363,5.4873 2.2353,5.6883 C2.2323,6.3873 2.2063,7.0853 2.1723,7.7833 C2.1543,8.4193 2.1343,9.0563 2.1153,9.6933 C2.0953,10.3333 2.0753,10.9733 2.0563,11.6123 C2.0373,12.2433 2.0433,12.8753 2.0453,13.5073 C2.0453,13.6313 2.0003,13.7493 1.9233,13.8453 L1.9203,13.9533 C1.8923,14.8213 1.8503,15.6923 1.8823,16.5603 C1.8843,16.5813 1.8863,16.6023 1.8893,16.6223 C1.9023,16.6243 1.9143,16.6273 1.9263,16.6303 C2.0463,16.6583 2.1463,16.6973 2.2543,16.7563 C2.4363,16.8533 2.5943,16.9783 2.7513,17.1103 C3.0113,17.3283 3.2593,17.5703 3.4853,17.8223 C3.7473,18.1133 4.0083,18.4033 4.2713,18.6953 C4.4863,18.9353 4.6863,19.1893 4.8933,19.4373 C5.0673,19.6443 5.2373,19.8523 5.4043,20.0643 C5.6003,20.3163 5.8043,20.5623 5.9943,20.8183 C6.2083,21.1093 6.4203,21.3993 6.6353,21.6903 C7.0183,22.2093 7.3783,22.7503 7.7353,23.2883 C7.8923,23.5253 8.0473,23.7623 8.2033,24.0003 C8.2783,24.1143 8.3523,24.2303 8.4293,24.3423 C8.5153,24.4673 8.5993,24.5963 8.6923,24.7163 C8.7903,24.6633 8.8813,24.6013 8.9733,24.5383 C9.3593,24.2563 9.7363,23.9643 10.1263,23.6893 C10.2143,23.6403 10.3103,23.6173 10.4123,23.6193 C10.5653,23.6243 10.7093,23.6963 10.8083,23.8123 C10.9793,24.0133 10.9883,24.3133 10.8473,24.5333 C10.6933,24.7733 10.4733,24.9473 10.2593,25.1293 C10.1223,25.2463 9.9813,25.3593 9.8363,25.4683 C9.6593,25.6043 9.4743,25.7343 9.2743,25.8373 C9.1843,25.8843 9.0843,25.9153 8.9893,25.9503 C8.9003,25.9823 8.7553,26.0043 8.6653,25.9993 C8.5493,25.9933 8.4443,25.9783 8.3353,25.9393 C8.3263,25.9363 8.3163,25.9323 8.3063,25.9283 C8.2993,25.9273 8.2933,25.9263 8.2873,25.9253 C8.1293,25.9073 7.9963,25.8573 7.8903,25.7343 C7.8143,25.6443 7.7683,25.5323 7.7553,25.4163 C7.7403,25.3953 7.7253,25.3743 7.7093,25.3523 C7.3513,24.8343 7.0183,24.3013 6.6643,23.7803 C6.2923,23.2313 5.9153,22.6863 5.5213,22.1513 C5.3413,21.9083 5.1663,21.6623 4.9793,21.4253 C4.7533,21.1383 4.5273,20.8533 4.3033,20.5643 C4.1583,20.3783 3.9993,20.2013 3.8473,20.0203 C3.7063,19.8503 3.5683,19.6753 3.4193,19.5103 C2.9993,19.0413 2.5893,18.5583 2.1283,18.1273 C1.9873,18.0053 1.8403,17.8903 1.6793,17.7953 C1.6723,17.7923 1.6673,17.7913 1.6603,17.7893 C1.4683,17.7773 1.2983,17.7383 1.1353,17.6263 C0.9503,17.4993 0.8753,17.2933 0.8083,17.0893 C0.7573,16.9313 0.7533,16.7453 0.7473,16.5813 C0.7433,16.4943 0.7383,16.4083 0.7373,16.3213 C0.7353,16.0033 0.7373,15.6863 0.7443,15.3683 C0.7583,14.6883 0.7793,14.0103 0.8023,13.3323 C0.8303,12.4893 0.8623,11.6473 0.8963,10.8053 C0.8873,8.9743 0.8763,7.1433 0.8653,5.3113 C0.8553,3.8153 0.8443,2.3203 0.8353,0.8253 C0.8333,0.5173 1.1223,0.2493 1.4203,0.2493 L1.4383,0.2493 Z" id="Fill-22" fill="#009A27" mask="url(#mask-4)"></path>
                        </g>
                        <path d="M38.0388,18.3199 C38.2658,18.3279 38.4908,18.3459 38.7168,18.3679 C38.8978,18.3879 39.0808,18.3929 39.2618,18.4099 C39.4538,18.4279 39.6498,18.4649 39.8288,18.5389 C39.9568,18.5919 40.0508,18.6469 40.1478,18.7439 C40.2428,18.8399 40.3048,18.9589 40.3738,19.0719 C40.4508,19.1989 40.4448,19.3889 40.4018,19.5249 C40.3538,19.6699 40.2508,19.8039 40.1138,19.8749 C39.9068,19.9819 39.7058,20.0769 39.4758,20.1259 C39.3218,20.1589 39.1618,20.1739 39.0068,20.1979 C38.7728,20.2359 38.5388,20.2729 38.3048,20.3099 C37.7878,20.3929 37.2728,20.4789 36.7578,20.5629 C36.6018,20.5889 36.4588,20.5759 36.3238,20.4849 C36.1998,20.4009 36.1158,20.2669 36.0868,20.1189 C36.0438,19.9009 36.1378,19.6399 36.3198,19.4999 C36.2548,19.5009 36.1888,19.5019 36.1238,19.5019 C35.9898,19.5039 35.8548,19.5179 35.7228,19.5249 C35.4838,19.5389 35.2468,19.5519 35.0098,19.5659 C34.7148,19.5819 34.4198,19.5989 34.1258,19.6149 C32.8208,19.6899 31.5168,19.7409 30.2118,19.8009 C29.9328,19.8139 29.6538,19.8349 29.3768,19.8569 C29.2778,19.8689 29.1818,19.8829 29.0848,19.9039 C29.0818,19.9079 29.0788,19.9099 29.0748,19.9129 C28.9658,20.0159 28.8188,20.0749 28.6688,20.0699 C28.5058,20.0649 28.3838,19.9899 28.2718,19.8779 C28.2668,19.8719 28.2608,19.8659 28.2548,19.8609 C28.1888,19.7819 28.1458,19.6939 28.1268,19.5929 C28.0938,19.4239 28.1418,19.2879 28.2148,19.1389 C28.3078,18.9529 28.5208,18.8459 28.7098,18.7879 C28.8858,18.7329 29.0658,18.7089 29.2488,18.6899 C29.4298,18.6689 29.6128,18.6519 29.7948,18.6419 C30.1278,18.6219 30.4608,18.6069 30.7938,18.5909 C31.4028,18.5609 32.0138,18.5399 32.6228,18.5099 C33.3528,18.4749 34.0828,18.4349 34.8128,18.3929 C35.4098,18.3589 36.0048,18.3179 36.6018,18.3099 C36.8078,18.3079 37.0128,18.3059 37.2168,18.3059 C37.4898,18.3059 37.7648,18.3099 38.0388,18.3199" id="Fill-25" fill="#009A27"></path>
                    </g>
                </g>
            </g>
        </g>
    </g>
</svg>