<?xml version="1.0" encoding="UTF-8"?>
<svg width="85px" height="85px" viewBox="0 0 85 85" version="1.1" xmlns="http://www.w3.org/2000/svg" xmlns:xlink="http://www.w3.org/1999/xlink">
    <!-- Generator: sketchtool 58 (101010) - https://sketch.com -->
    <title>924E0B61-098A-40EB-B5DD-57A3C56C48E7</title>
    <desc>Created with sketchtool.</desc>
    <g id="Grid-Templates" stroke="none" stroke-width="1" fill="none" fill-rule="evenodd">
        <g id="Version-2---Desktop---Share" transform="translate(-921.000000, -553.000000)">
            <g id="Share-Window" transform="translate(715.000000, 435.000000)">
                <g id="Twitter" transform="translate(206.000000, 118.000000)">
                    <g id="Twitter_color">
                        <circle id="Oval" fill="#FFFFFF" cx="43.0902778" cy="41.9097222" r="32.9375"></circle>
                        <path d="M42.5,0 C65.9576389,0 85,19.0423611 85,42.5 C85,65.9576389 65.9576389,85 42.5,85 C19.0423611,85 0,65.9576389 0,42.5 C0,19.0423611 19.0423611,0 42.5,0 Z M35.0152778,65.1076389 C53.8215278,65.1076389 64.1041667,49.5243056 64.1041667,36.01875 C64.1041667,35.5701389 64.1041667,35.1333333 64.0805556,34.7083333 C66.0756944,33.2680556 67.8111111,31.4618056 69.1923611,29.4076389 C67.3743056,30.2104167 65.4027778,30.7652778 63.325,31.0131944 C65.45,29.7381944 67.0555556,27.7430556 67.8229167,25.3465278 C65.8513889,26.5152778 63.6673611,27.3652778 61.3298611,27.8256944 C59.4645833,25.8305556 56.8083333,24.6027778 53.86875,24.6027778 C48.2256944,24.6027778 43.6451389,29.1833333 43.6451389,34.8263889 C43.6451389,35.6291667 43.7277778,36.4201389 43.9166667,37.1638889 C35.4166667,36.7388889 27.8847222,32.6659722 22.84375,26.4798611 C21.9701389,27.9909722 21.4625,29.75 21.4625,31.6152778 C21.4625,35.1569444 23.26875,38.2972222 26.0194444,40.1152778 C24.3430556,40.0680556 22.7729167,39.6076389 21.3916667,38.8402778 L21.3916667,38.9701389 C21.3916667,43.9284722 24.9097222,48.0486111 29.5965278,49.0048611 C28.7465278,49.2409722 27.8375,49.3708333 26.9048611,49.3708333 C26.24375,49.3708333 25.60625,49.3118056 24.9805556,49.1819444 C26.2791667,53.2548611 30.0451389,56.1944444 34.5194444,56.2888889 C31.025,59.0277778 26.6097222,60.6569444 21.8166667,60.6569444 C20.9902778,60.6569444 20.1875,60.6097222 19.3729167,60.5034722 C23.8590278,63.4076389 29.2423611,65.1076389 35.0152778,65.1076389 L35.0152778,65.1076389 Z" id="Shape" fill="#1DA1F2"></path>
                    </g>
                </g>
            </g>
        </g>
    </g>
</svg>