<?xml version="1.0" encoding="UTF-8"?>
<svg width="85px" height="85px" viewBox="0 0 85 85" version="1.1" xmlns="http://www.w3.org/2000/svg" xmlns:xlink="http://www.w3.org/1999/xlink">
    <!-- Generator: sketchtool 58 (101010) - https://sketch.com -->
    <title>B58EC2B9-FDAC-4B6A-B98C-67C7691D108D</title>
    <desc>Created with sketchtool.</desc>
    <g id="Grid-Templates" stroke="none" stroke-width="1" fill="none" fill-rule="evenodd">
        <g id="Version-2---Desktop---Share" transform="translate(-1039.000000, -553.000000)" fill-rule="nonzero">
            <g id="Share-Window" transform="translate(715.000000, 435.000000)">
                <g id="Pinterest" transform="translate(323.000000, 118.000000)">
                    <g id="Pinterest_color" transform="translate(1.000000, 0.000000)">
                        <path d="M85,42.5 C85,65.9694444 65.9694444,85 42.5,85 C19.0305556,85 0,65.9694444 0,42.5 C0,19.0305556 19.0305556,0 42.5,0 C65.9694444,0 85,19.0305556 85,42.5 L85,42.5 Z" id="Path" fill="#FFFFFF"></path>
                        <path d="M42.5,0 C19.0305556,0 0,19.0305556 0,42.5 C0,60.5034722 11.2034722,75.8979167 27.0111111,82.0840278 C26.6333333,78.7194444 26.3027778,73.5486111 27.1645833,69.8770833 C27.9319444,66.5597222 32.1465278,48.7569444 32.1465278,48.7569444 C32.1465278,48.7569444 30.8715278,46.2069444 30.8715278,42.4527778 C30.8715278,36.5381944 34.2951389,32.1347222 38.5569444,32.1347222 C42.18125,32.1347222 43.9284722,34.8618056 43.9284722,38.1201389 C43.9284722,41.7680556 41.6027778,47.2222222 40.4104167,52.275 C39.4069444,56.5013889 42.5354167,59.9604167 46.7027778,59.9604167 C54.2583333,59.9604167 60.0666667,51.9916667 60.0666667,40.4930556 C60.0666667,30.3166667 52.7590278,23.1979167 42.3111111,23.1979167 C30.2222222,23.1979167 23.1152778,32.2645833 23.1152778,41.6381944 C23.1152778,45.2861111 24.5201389,49.2055556 26.2791667,51.3423611 C26.6215278,51.7673611 26.6805556,52.1333333 26.5743056,52.5583333 C26.2555556,53.9041667 25.5354167,56.7847222 25.39375,57.375 C25.2048611,58.1541667 24.7798611,58.3194444 23.9770833,57.9416667 C18.6645833,55.4743056 15.3472222,47.70625 15.3472222,41.4729167 C15.3472222,28.0618056 25.0868056,15.7604167 43.4326389,15.7604167 C58.1777778,15.7604167 69.6291667,26.2673611 69.6291667,40.3041667 C69.6291667,54.9548611 60.3972222,66.7368056 47.5763889,66.7368056 C43.2673611,66.7368056 39.2180556,64.49375 37.8368056,61.8611111 C37.8368056,61.8611111 35.7,69.9715278 35.1923611,71.9666667 C34.2361111,75.6618056 31.6388889,80.2895833 29.9152778,83.1111111 C33.89375,84.3388889 38.1201389,85 42.5,85 C65.9694444,85 85,65.9694444 85,42.5 C85,19.0305556 65.9694444,0 42.5,0 L42.5,0 Z" id="Path" fill="#E71D27"></path>
                    </g>
                </g>
            </g>
        </g>
    </g>
</svg>