<?xml version="1.0" encoding="UTF-8"?>
<svg width="192px" height="182px" viewBox="0 0 192 182" version="1.1" xmlns="http://www.w3.org/2000/svg" xmlns:xlink="http://www.w3.org/1999/xlink">
    <!-- Generator: sketchtool 58 (101010) - https://sketch.com -->
    <title>81E6EF11-796B-411E-A561-CA8787265CE4</title>
    <desc>Created with sketchtool.</desc>
    <defs>
        <polygon id="path-1" points="0.604248889 0.224181818 40.5535556 0.224181818 40.5535556 9.69242154 0.604248889 9.69242154"></polygon>
        <polygon id="path-3" points="0.487022222 0.141768889 7.13111043 0.141768889 7.13111043 41 0.487022222 41"></polygon>
    </defs>
    <g id="Grid-Templates" stroke="none" stroke-width="1" fill="none" fill-rule="evenodd">
        <g id="Summer-Heat---Desktop" transform="translate(-528.000000, -4115.000000)">
            <g id="sun" transform="translate(528.000000, 4115.000000)">
                <path d="M100.941498,56 C99.344793,56 97.6493231,56.1494425 95.6054315,56.4683748 C94.7503806,56.5594983 93.9063036,56.670669 93.0658846,56.8201115 C90.1148159,57.3404267 87.5094256,57.9810249 85.0997367,58.7783555 C83.7517741,59.230328 82.3114478,59.7324185 80.9104446,60.3383898 C79.62924,60.8878645 78.2575006,61.54122 76.595867,62.3923135 C75.5405421,62.9290309 74.3215231,63.5687178 73.2204736,64.3678709 C71.8423328,65.380253 70.642518,66.3744104 69.5542714,67.4077509 C68.7184249,68.1959691 67.8953813,69.0033233 67.0723376,69.8097663 L66.5263854,70.3446612 C64.9680894,71.8682461 63.7070037,73.1831582 62.6187571,74.6566252 C60.7824553,77.1470304 59.4107159,79.8625107 57.91552,83.1730274 C57.2333082,84.6911449 56.6526052,86.2821612 56.1761544,87.6389901 C55.774692,88.7825901 55.2735499,90.290684 54.9534774,91.8179138 C54.6068846,93.4727166 54.357228,95.1074721 54.1889613,96.8160377 C54.0691627,98.0544061 53.9548511,99.5105596 54.0179511,100.925708 C54.1725004,104.422116 54.6260889,107.413701 55.4061514,110.070862 C56.1889573,112.758094 57.199472,115.571988 58.494394,118.677476 C59.1080187,120.142742 59.7527363,121.47679 60.4651263,122.754342 C61.2186684,124.105703 62.1798005,125.361385 63.021134,126.41295 C63.9868385,127.625804 64.9671749,128.818611 65.9786041,129.994104 C67.7819842,132.103613 69.5826207,133.728345 71.481108,134.961246 C73.1217084,136.024657 74.9534377,136.829277 76.3654148,137.409734 C77.7691614,137.985635 79.120782,138.47679 80.4943503,138.911449 C83.0402986,139.715159 85.8322455,140.276479 89.2807984,140.678334 C91.1317321,140.895208 93.1865977,141 95.5597068,141 C96.2684388,141 96.9744274,140.990888 97.6795014,140.976308 C98.9396727,140.945326 100.210818,140.816842 101.440811,140.692003 L101.626453,140.672867 C103.132623,140.515223 104.611358,140.272834 106.023335,139.953902 C108.969831,139.295991 111.748061,138.495015 114.280292,137.575579 C117.299033,136.487564 120.01782,134.870122 122.050738,133.583458 C126.489687,130.764097 130.50614,126.313626 133.9867,120.35506 C134.744814,119.050172 135.350209,117.869211 135.837633,116.746569 C136.413764,115.427101 137.066712,113.933587 137.517557,112.390866 C138.347002,109.556014 138.945995,106.727541 139.348372,103.747802 C139.789157,100.433641 139.913528,97.0830296 139.972056,94.5352166 C140,93.2066359 140.023267,91.7905768 139.956509,90.3781625 C139.879692,88.7953473 139.728801,87.1733491 139.493776,85.4228666 C139.301732,83.9375536 138.920389,82.4613529 138.582941,81.1582869 C138.171419,79.5526908 137.650158,78.0199936 137.034705,76.6012007 C136.463146,75.291756 135.790994,74.0707011 134.981668,72.8687822 C134.245501,71.7798563 133.412398,70.7364923 132.605815,69.7286664 L132.160457,69.1700793 L131.925433,68.8721055 C131.184693,67.9371784 130.419263,66.9694468 129.595305,66.0773478 C128.457675,64.8562929 127.087765,63.8630467 125.897095,63.0529588 C124.750321,62.2765866 123.526729,61.6095626 122.371725,60.9926565 C120.860068,60.1871248 119.511191,59.5583726 118.247362,59.0717732 C117.916315,58.943289 117.577953,58.8211835 117.246907,58.7045455 C116.272972,58.1596269 115.225877,57.7814644 114.148605,57.4105918 C112.798813,56.9403945 111.370375,56.7080296 110.028814,56.5276051 C107.826715,56.2360099 105.62553,56.1640223 103.953837,56.1330403 C103.170117,56.0747213 102.385482,56.0328045 101.600847,56.0109348 C101.370395,56.0054674 101.158233,56 100.941498,56" id="Fill-1" fill="#EAA421"></path>
                <path d="M50.2214878,18.1105942 C49.470454,18.321811 48.8213662,18.8385216 48.4332229,19.5256561 C48.0619148,20.1719977 47.8486698,21.1736911 48.1273848,21.900712 C49.217927,24.6991081 50.3178222,27.4929715 51.416782,30.2813959 C52.5466062,33.1559388 53.537073,36.0658355 54.4227879,39.0301228 C55.2430328,41.7650632 56.0146429,44.5090686 56.8872638,47.2267852 C57.3754825,48.7533479 57.9572298,50.2490892 58.5979,51.7085701 C59.3049754,53.3076535 60.4170292,54.7626019 61.9181616,55.6292254 C62.986257,56.2438391 64.334938,56.0915454 65.2113,55.1931941 C65.5480026,54.8432813 65.7790179,54.4299128 65.9090226,53.9585276 C66.1185264,53.168051 65.9408222,52.5253355 65.6340488,51.8028471 C65.2066235,50.7884626 64.7399163,49.7958342 64.3059441,48.7859822 C62.8356761,45.0819828 61.6834051,41.2791739 60.4871756,37.4718323 C59.7885177,35.2536027 59.0430956,33.0661943 58.2134978,30.8969161 C57.4100881,28.7983458 56.5084733,26.7360358 55.6461406,24.6610346 C55.0559758,23.2006472 54.4742285,21.7330077 53.9037047,20.2617422 C53.5978665,19.4848632 53.2574228,18.8602779 52.5297711,18.4206206 C52.0686756,18.1432286 51.5421102,18 51.0146095,18 C50.747118,18 50.4805617,18.0362604 50.2214878,18.1105942" id="Fill-3" fill="#020303"></path>
                <path d="M115.632859,0.929785121 C115.323077,1.30677402 115.026397,1.68376292 114.798974,2.11965633 C114.63332,2.44227183 114.497615,2.84735365 114.366589,3.20621809 C114.253345,3.49802199 114.179409,3.80795037 114.100794,4.11334762 C113.938884,4.7458915 113.82564,5.39202872 113.712396,6.03907217 C113.489653,7.27787944 113.297794,8.52665516 113.101255,9.77452467 C112.664191,12.5267249 112.228062,15.2789251 111.717062,18.0175319 C110.682895,23.5844618 109.55233,29.1341733 108.574316,34.7146965 C108.111047,37.3364006 107.792842,39.9852913 107.461534,42.6251198 C107.31179,43.8195221 107.1817,45.0093934 107.085303,46.2083268 C106.985162,47.4924452 106.989841,48.7765637 107.016046,50.0652132 C107.033828,51.1200572 107.853675,52 108.897201,52 C109.909843,52 110.800818,51.1200572 110.778356,50.0652132 C110.753087,48.562695 110.806433,47.093707 110.958049,45.6020634 C111.755434,40.0886008 113.081601,34.7056343 114.458307,29.3181367 C115.131218,26.673777 115.864026,24.0511668 116.588411,21.4249316 C117.323091,18.7624475 117.986642,16.0872763 118.636156,13.4066677 C119.02081,11.8352765 119.42231,10.2684164 119.810708,8.69702515 C120.149503,7.32228438 120.512631,5.94935606 120.716657,4.54833481 C120.789657,4.39155818 120.85049,4.22662554 120.898221,4.05444311 C121.033926,3.53427093 121.033926,3.01319252 120.898221,2.49211411 C120.667054,1.91303742 120.505144,1.40555236 120.059656,0.947909587 C119.635695,0.516547289 119.168682,0.30630348 118.610886,0.121433924 C118.362873,0.0398738258 118.089591,0 117.808822,0 C117.000206,0 116.128885,0.329865286 115.632859,0.929785121" id="Fill-5" fill="#020303"></path>
                <path d="M171.713736,30.0516645 C170.700867,30.7865617 169.670662,31.5003833 168.645019,32.216954 C166.524383,33.6876648 164.404659,35.1675389 162.387135,36.7976912 C160.191675,38.5772055 157.986177,40.3292298 155.714067,42.000617 C153.517694,43.6161081 151.372421,45.3049056 149.324784,47.1302364 C148.133067,48.187682 146.980587,49.2955259 145.800732,50.3667165 C144.663765,51.4021702 143.484823,52.3826441 142.318656,53.3722812 C141.250125,54.2757833 140.177945,55.1884487 139.165076,56.1643409 C137.947809,57.3354116 136.743317,58.5248089 135.530613,59.7004612 C134.79423,60.4087848 134.85263,61.7209704 135.530613,62.443039 C136.254221,63.2191711 137.364726,63.1513627 138.101108,62.443039 C139.771885,60.8312133 141.434449,59.2294672 143.1764,57.7111072 C145.959506,55.4376907 148.757213,53.1844334 151.50747,50.8615351 C152.448251,50.1018969 153.390857,49.3550874 154.359926,48.6330188 C155.385569,47.8742969 156.437674,47.1659733 157.488868,46.4494027 C158.599373,45.6906808 159.73999,44.9786919 160.85597,44.2245517 C161.940926,43.4933198 163.009456,42.7400959 164.073424,41.9777088 C166.180372,40.4657631 168.333858,39.0078809 170.572206,37.7195199 C171.700048,37.0744231 172.833366,36.4348243 173.973983,35.8126357 C175.044339,35.2280167 176.120169,34.6598917 177.106575,33.9240781 C178.226205,33.5282232 179,32.3296626 179,31.0825365 C179,29.6842159 178.131306,28.6121089 176.931376,28.1805172 C176.581891,28.0549798 176.236968,28 175.899346,28 C174.361793,28 172.95929,29.1509114 171.713736,30.0516645" id="Fill-7" fill="#020303"></path>
                <g id="Group-11" transform="translate(151.000000, 90.000000)">
                    <mask id="mask-2" fill="white">
                        <use xlink:href="#path-1"></use>
                    </mask>
                    <g id="Clip-10"></g>
                    <path d="M35.4105156,0.249636364 C34.3654711,0.316909091 33.31496,0.519636364 32.2826711,0.682363636 C30.4814044,0.969636364 28.6783156,1.26781818 26.8770489,1.54690909 C23.3118711,2.096 19.7412267,2.62781818 16.1760489,3.15418182 C16.3965378,3.12327273 16.6215822,3.09145455 16.8475378,3.06054545 C12.2017822,3.71327273 7.55329333,4.39690909 2.88202667,4.85236364 C2.26156,4.916 1.73038222,5.07781818 1.27118222,5.55963636 C0.845693333,6.01054545 0.604248889,6.63236364 0.604248889,7.26690909 C0.604248889,8.49145455 1.64473778,9.80236364 2.88202667,9.68509091 C8.48262667,9.13509091 14.0896044,8.68054545 19.6902044,8.18509091 C22.5246711,7.93781818 25.3509378,7.66781818 28.1854044,7.44236364 C29.5630044,7.33418182 30.9442489,7.23054545 32.3209378,7.11418182 C33.8935156,6.98236364 35.4824933,6.84781818 37.0341156,6.51054545 C37.2026711,6.47418182 37.3694044,6.42963636 37.5361378,6.38145455 C38.59576,6.496 39.6198489,6.06418182 40.1874711,5.03327273 C40.4298267,4.59054545 40.5491822,4.11872727 40.5537378,3.61418182 C40.5537378,2.94781818 40.29316,2.05054545 39.7756489,1.62327273 C39.3884267,1.30781818 39.0358267,0.984181818 38.5939378,0.763272727 C37.93156,0.429636364 37.4040267,0.321454545 36.6733156,0.249636364 C36.4810711,0.231454545 36.2924711,0.224181818 36.10296,0.224181818 C35.87336,0.224181818 35.64376,0.235090909 35.4105156,0.249636364" id="Fill-9" fill="#020303" mask="url(#mask-2)"></path>
                </g>
                <path d="M141.170505,122.669962 C140.819803,123.31663 141.029122,124.16177 141.62403,124.54008 C143.213206,125.551081 144.806054,126.548104 146.39523,127.559104 C148.034899,128.601786 149.645191,129.682671 151.267417,130.748648 C154.351208,132.775307 157.657171,134.37334 160.770339,136.348751 C162.460503,137.423114 164.058859,138.683836 165.875716,139.501022 C165.920701,139.523386 165.96385,139.54668 166.007,139.570907 C166.20163,139.739563 166.418294,139.857901 166.663418,139.931513 C166.988414,140.022829 167.318919,140.022829 167.643915,139.931513 C168.397649,139.708813 169.048559,138.886968 168.997147,138.014805 C168.971441,137.562883 168.92462,137.188301 168.722645,136.787628 C168.573,136.481998 168.389386,136.214572 168.166296,135.965782 C167.92209,135.693697 167.545682,135.392727 167.261999,135.198913 C166.847032,134.903533 166.422884,134.650084 165.982212,134.405021 C165.057717,133.892533 164.098336,133.435952 163.147218,132.969121 C161.326689,132.079255 159.470355,131.275113 157.62412,130.449541 C156.453583,129.902575 155.280292,129.359337 154.132707,128.749942 C152.800591,128.03898 151.495098,127.286088 150.189605,126.52015 C149.007133,125.827825 147.817317,125.148544 146.626583,124.466468 C145.363321,123.745257 144.129438,122.966274 142.900145,122.180769 C142.704596,122.057771 142.48885,122 142.274022,122 C141.835186,122 141.402776,122.242267 141.170505,122.669962" id="Fill-12" fill="#020303"></path>
                <g id="Group-16" transform="translate(114.000000, 141.000000)">
                    <mask id="mask-4" fill="white">
                        <use xlink:href="#path-3"></use>
                    </mask>
                    <g id="Clip-15"></g>
                    <path d="M1.37413333,0.362257778 C1.15013333,0.507124444 0.971466667,0.701191111 0.839022222,0.945368889 C0.462133333,1.47745778 0.490577778,2.26283556 0.487022222,2.90881333 C0.487022222,3.36892444 0.511022222,3.83450222 0.5368,4.29370222 C0.590133333,5.32781333 0.6648,6.35736889 0.735022222,7.38601333 C0.876355556,9.39501333 1.06657778,11.3985467 1.2248,13.4029911 C1.53591111,17.3034578 1.69324444,21.21668 1.89235556,25.1262578 C2.0088,27.4140578 2.15368889,29.7027689 2.27368889,31.99148 C2.33591111,33.1385689 2.39368889,34.2801911 2.44791111,35.4218133 C2.51013333,36.7447467 2.48968889,38.12508 2.89146667,39.3851467 C2.88702222,39.3505244 2.88257778,39.3159022 2.87813333,39.2821911 C2.95102222,39.7013022 3.09235556,40.06848 3.39724444,40.4001244 C3.91902222,40.9650133 4.59546667,41.0916578 5.29146667,40.9422356 C6.52791111,40.6853022 7.10835556,39.1865244 7.12968889,37.9501467 C7.1368,37.5027911 7.11635556,37.0554356 7.08791111,36.6089911 C7.0248,35.61588 6.95457778,34.6273244 6.87991111,33.6351244 C6.73502222,31.7017467 6.58124444,29.7701911 6.42835556,27.8386356 C6.1048,23.7896578 5.84791111,19.7361244 5.47813333,15.6917022 C5.25502222,13.2180356 4.91457778,10.7580356 4.59991111,8.29803556 C4.43813333,7.02885778 4.2728,5.75694667 4.09768889,4.48776889 C4.02746667,3.95568 3.9448,3.42268 3.86568889,2.88968 C3.77768889,2.29836889 3.71902222,1.70432444 3.50213333,1.15492444 C3.48168889,1.09934667 3.45857778,1.04468 3.43102222,0.990924444 C3.4248,0.975435556 3.41768889,0.959946667 3.40968889,0.945368889 C3.40968889,0.945368889 3.40968889,0.94628 3.4088,0.947191111 C3.34568889,0.826924444 3.26835556,0.715768889 3.17768889,0.614635556 C2.89946667,0.312146667 2.51813333,0.141768889 2.12435556,0.141768889 C1.85502222,0.141768889 1.60613333,0.218302222 1.37413333,0.362257778" id="Fill-14" fill="#020303" mask="url(#mask-4)"></path>
                </g>
                <path d="M80.7826715,149.251994 C79.901272,153.540051 78.7639824,157.747218 77.540479,161.937308 C76.9489049,163.946071 76.2646969,165.923376 75.597915,167.904277 C74.8962807,169.979549 74.2111554,172.054821 73.5223615,174.134587 C73.2279502,175.024375 72.9317046,175.915061 72.6501337,176.810241 C72.3878234,177.641608 72.109004,178.542181 72.027376,179.426576 C72.0035296,179.558696 71.9934407,179.697107 72.0044467,179.842709 C72.054891,180.621048 72.3676457,181.307712 73.0307589,181.712161 C73.7021266,182.122003 74.4560395,182.068975 75.1310759,181.712161 C75.9656997,181.271761 76.3123896,180.318161 76.6022151,179.455337 C76.7562994,179.001455 76.851685,178.519712 76.9534908,178.047854 C77.1763629,177.036732 77.3946491,176.026509 77.6422847,175.019881 C78.1604852,172.953596 78.7383017,170.901692 79.3280414,168.856979 C80.4919289,164.787324 81.5998691,160.699694 82.5619794,156.572518 C83.0581678,154.44332 83.5158352,152.306032 83.9569935,150.16515 C84.1450131,149.251994 83.7084407,148.316369 82.8059463,148.05842 C82.6711225,148.018874 82.5298785,148 82.3886344,148 C81.6695739,148 80.9367559,148.488934 80.7826715,149.251994" id="Fill-17" fill="#020303"></path>
                <path d="M51.8530755,135.385128 C51.3731805,135.917141 50.8977957,136.458111 50.3845245,136.950716 C49.8920006,137.425408 49.3787294,137.860691 48.8573397,138.295975 C48.9448393,138.224323 49.0341431,138.153567 49.1225448,138.082811 C47.9146887,139.059065 46.7068325,140.048753 45.432224,140.922903 C44.0484665,141.876765 42.6421575,142.791219 41.228632,143.691343 C39.9116268,144.529667 38.6198792,145.400234 37.3831572,146.367531 C36.0887034,147.381402 34.82943,148.44722 33.5647441,149.504977 C32.6058561,150.26538 31.6532824,151.035635 30.6547038,151.73603 C29.5650173,152.49912 28.4708205,153.257731 27.3685052,154.003804 C26.346473,154.704199 25.3361677,155.42788 24.3258623,156.151562 C23.8306322,156.501759 23.3335981,156.85733 22.8365639,157.206632 C22.5848896,157.380387 22.3314112,157.557725 22.0842472,157.739541 C21.771233,157.964348 21.4681414,158.219607 21.1470086,158.438144 C20.6211086,158.619065 20.2025535,159.094652 20.055518,159.657118 C19.870596,160.370947 20.1520382,161.342722 20.8339943,161.675902 C20.8763911,161.69292 20.9223961,161.715311 20.9647928,161.737702 C21.2381165,161.906083 21.5330896,161.990274 21.847908,161.990274 C22.1509996,162.0261 22.4450706,161.955344 22.7436519,161.901605 C22.8329557,161.862197 22.9213574,161.826371 23.0061509,161.786962 C23.177542,161.724267 23.3453248,161.649033 23.5058912,161.560364 C23.6078238,161.502147 23.7079523,161.449304 23.8044726,161.386609 C24.2969964,161.058803 24.7597524,160.686214 25.2098795,160.295713 C25.8593615,159.745787 26.5016271,159.188695 27.1520112,158.644143 C29.2384722,156.966599 31.415139,155.414445 33.5205433,153.750336 C34.6643533,152.845734 35.7666686,151.878437 36.869886,150.91114 C37.7755526,150.114016 38.6848274,149.328535 39.6076331,148.557384 C40.764974,147.687713 41.9403561,146.848493 43.1391917,146.034351 C44.3885425,145.190653 45.6216563,144.32546 46.8412392,143.428919 C48.120358,142.493865 49.3237039,141.437003 50.5189312,140.385516 C51.0114551,139.951128 51.5075872,139.511366 51.9748534,139.04563 C52.5476605,138.473313 53.0897975,137.869648 53.637347,137.266878 C54.1127317,136.742926 54.1289688,135.908184 53.637347,135.385128 C53.3946933,135.13166 53.0627358,135 52.7334845,135 C52.4096455,135 52.0885128,135.12539 51.8530755,135.385128" id="Fill-19" fill="#020303"></path>
                <path d="M40.2496833,110.05527 C39.4179804,110.315574 38.6107127,110.620451 37.8170201,110.995752 C37.1038733,111.33183 36.4205918,111.724068 35.7282602,112.104719 C34.5336488,112.766176 33.3091721,113.34562 32.0702153,113.90456 C30.0230858,114.738068 27.9605711,115.514523 25.8971514,116.286521 C23.9550029,117.015728 22.0001843,117.712844 20.0290755,118.340426 C17.9511757,119.002775 15.8542707,119.603614 13.797186,120.336388 C11.7844468,121.052224 9.78347275,121.811741 7.76982855,122.545406 C6.68019816,122.937645 5.59147277,123.32721 4.49822234,123.714991 C4.01313772,123.887933 3.52352805,124.059983 3.03753841,124.231142 C2.59498919,124.390712 2.155155,124.576134 1.74156605,124.815043 C1.35693739,125.036123 1.0121291,125.362395 0.690851032,125.679752 C-0.609646371,126.978598 0.028384714,129.407805 1.74971113,129.875817 C2.58141406,130.101355 3.49818781,130.013101 4.28735533,129.664543 C4.89914117,129.39889 5.49011181,129.107385 6.08560748,128.811423 C6.97161093,128.365697 7.86304444,127.928886 8.76171801,127.509012 C10.5871204,126.663024 12.4188579,125.827733 14.2487853,124.995117 C18.305939,123.238956 22.4535936,121.742208 26.4872171,119.925428 C28.4040253,119.06072 30.3380288,118.225429 32.2331169,117.319714 C33.2204813,116.847244 34.2168958,116.392603 35.1716799,115.858624 C36.1626643,115.306815 37.1174485,114.697061 38.1011928,114.130989 C38.5564122,113.868011 39.0116315,113.621079 39.479521,113.382169 C39.9772757,113.184267 40.4741255,113.003302 40.9845503,112.841949 C41.7058422,112.620869 42.1538215,111.834609 41.9510996,111.066177 C41.785483,110.441269 41.2162325,110 40.6134968,110 C40.4931306,110 40.3700495,110.016938 40.2496833,110.05527" id="Fill-21" fill="#020303"></path>
                <path d="M12.3817402,59.3885672 C11.9673298,59.6454937 11.6389118,59.9913912 11.3955714,60.4271675 C11.0589201,61.0345307 10.8585759,61.9796207 11.1192977,62.6587054 C11.2345642,62.9646567 11.3498307,63.2615294 11.4724157,63.558402 C11.6352525,63.859814 11.8264485,64.1339899 12.0487482,64.3900085 C12.1813961,64.5697662 12.3177033,64.7322745 12.4668179,64.8938749 C12.9278838,65.3977413 13.5380644,65.7844928 14.1098228,66.1394689 C15.0786101,66.7386614 16.1882788,67.178977 17.2247624,67.6247399 C18.9565041,68.3646518 20.6992237,69.0736962 22.4291358,69.8172396 C24.3136514,70.6806214 26.1725523,71.6021068 28.0506642,72.4863696 C29.9452427,73.3815268 31.8617768,74.2403693 33.704211,75.2481021 C35.6500191,76.3139384 37.5107495,77.5286649 39.4309429,78.6398945 C40.4006451,79.2064038 41.4288953,79.7148095 42.4644641,80.1333363 C43.0160966,80.3530402 43.5576661,80.546416 44.1339986,80.6907669 C44.7606457,80.847828 45.4229706,80.9023 46.0624252,80.9921789 C46.5399578,81.0548217 47.1080569,80.7307131 47.4319009,80.3938943 C47.7950818,80.0116821 48,79.485119 48,78.944938 C48,78.4056648 47.7950818,77.883641 47.4319009,77.5014289 C47.0888459,77.1400977 46.7247501,77.0120884 46.2892989,76.9376432 C46.2563657,76.932196 46.2243472,76.9276567 46.1923287,76.9222095 C46.2234324,76.9276567 46.2554508,76.932196 46.2874693,76.9376432 C46.2334953,76.9276567 46.1795213,76.9194859 46.1237177,76.912223 C45.4613928,76.8050946 44.8384049,76.6562044 44.1980355,76.4274218 C42.0226092,75.3933609 40.0777159,73.9652855 38.0916561,72.5807878 C36.0132,71.1327394 33.7902034,69.9180128 31.5662921,68.7441403 C29.2884067,67.5384925 27.0306472,66.2792805 24.7390397,65.0963293 C22.4785357,63.9315355 20.1521653,62.9238027 17.9803983,61.5610938 C17.3912584,61.1924997 16.8414556,60.7558155 16.2943972,60.3200391 C16.4233858,60.4226281 16.5505449,60.5270329 16.6804484,60.6323455 C16.3858785,60.3953921 16.0922234,60.1620702 15.7985683,59.9296562 C15.7702091,59.9006044 15.7400202,59.8724605 15.7098314,59.8425009 C15.1664322,59.2977805 14.4583667,59 13.7420678,59 C13.2773426,59 12.8098729,59.1252857 12.3817402,59.3885672" id="Fill-23" fill="#020303"></path>
                <path d="M84.5309939,85.7702896 C84.4742956,85.7576313 84.4157682,85.7485897 84.3572409,85.7431647 C84.4139392,85.7513022 84.4724666,85.7612479 84.5309939,85.7702896 M84.9553171,85.939368 C84.9150795,85.9149556 84.8739275,85.8941598 84.8327755,85.8742683 L84.8309465,85.8751724 C84.8720985,85.8968723 84.914165,85.9185722 84.9553171,85.939368 M84.5273359,85.9872886 C84.5593431,85.9710137 84.5913502,85.9538346 84.6251863,85.9366555 C84.5913502,85.9529304 84.5593431,85.9701095 84.5273359,85.9872886 M81.8680003,89.432148 C81.9210406,89.3507733 81.9731666,89.2693987 82.0252925,89.1880241 C81.9722521,89.2693987 81.9201262,89.3498692 81.8680003,89.432148 M89.2936556,99.699818 C88.8611021,99.3942111 88.6452825,98.9547881 88.474273,98.4041531 C88.2182159,97.585886 88.117622,96.7061358 87.9969094,95.8517022 C87.8807692,95.0271059 87.770116,94.2025096 87.6247121,93.3833384 C87.3457928,91.8028622 87.0101752,90.2585525 86.5419565,88.7467927 C86.0874552,87.5930813 85.4811486,85.7847562 83.9347467,85.8688433 C82.4770503,85.9484096 81.234259,87.8046553 80.7084275,88.9637917 C80.0783441,90.3534896 79.7683322,91.8299871 79.8899593,93.3372261 C80.0060995,94.7875028 80.2082017,96.2323546 78.7962298,97.2197001 C78.2127854,97.6410399 77.498569,97.7504435 76.844709,97.530732 C76.2109677,97.3173497 75.658616,96.8046895 75.3266563,96.1139093 C74.9645184,95.3571252 74.9443997,94.5813538 75.0696847,93.7450034 C75.1958843,92.9439154 75.3165969,92.1437315 75.4720601,91.3562059 C75.748236,89.9457123 76.3261934,88.6021267 76.9453029,87.3679448 C77.5031415,86.262154 78.1423697,85.2060921 78.8309804,84.2160341 C79.5296504,83.2151262 80.2886767,82.3109636 81.1684157,81.5351921 C81.3193065,81.4004719 81.4701973,81.2603267 81.6311475,81.1382648 C82.1341167,80.7530915 82.6672641,80.4845552 83.2196158,80.2096898 C83.5570625,80.1057111 83.8990816,80.0388031 84.2456732,80.0026366 C84.7129773,79.9836492 85.1565048,80.0695446 85.6137496,80.1852774 C85.8048779,80.282927 85.9905193,80.3814807 86.1816476,80.4782261 C86.3828353,80.5523674 86.5693912,80.6617711 86.7394862,80.8082454 C87.0467547,81.0406152 87.3284175,81.3516471 87.6045934,81.6391708 C88.0170282,82.0668397 88.3681922,82.6346538 88.6855201,83.1663014 C89.0119928,83.7097031 89.2744513,84.2838463 89.5149621,84.8941561 C89.83229,85.7006691 90.0984065,86.5487735 90.3087391,87.4041113 C90.8098794,89.4294355 91.2259721,91.4818845 91.4152715,93.5614584 C91.5524449,95.0659849 92.4239535,97.508128 91.7426587,98.9231424 C91.5112929,99.4068694 91.1244638,99.7730552 90.6772784,99.9195295 C90.5209006,99.9728751 90.359036,100 90.1980858,100 C89.8825869,100 89.567088,99.8978296 89.2936556,99.699818" id="Fill-25" fill="#020303"></path>
                <path d="M112.006259,88.0941874 C111.989023,88.0437818 111.971787,87.9942926 111.953644,87.943887 C111.97088,87.9942926 111.988116,88.0437818 112.006259,88.0941874 M115.088722,99.9129357 C114.833816,99.7827975 114.555324,99.6838192 114.370267,99.3987982 C114.120803,99.0212141 113.956611,98.7178638 113.832333,98.2532154 C113.75704,97.9874402 113.702611,97.7143333 113.657254,97.4357275 C113.556562,96.797867 113.501226,96.149009 113.439541,95.5083991 C113.126577,92.8515635 112.630371,90.2515489 111.876537,87.7312668 C111.645217,87.100738 111.386682,86.4977033 111.069182,85.9304107 C110.876869,85.6563873 110.673669,85.4052755 110.452327,85.1706602 C110.198327,84.959873 109.937978,84.769248 109.664929,84.5987853 C109.452658,84.5126374 109.23948,84.4457354 109.020859,84.3944133 C108.718781,84.3660029 108.42396,84.3660029 108.123697,84.3953298 C107.711855,84.497974 107.31362,84.6363604 106.919921,84.810489 C106.550715,85.0313573 106.205095,85.2861349 105.867638,85.5784877 C105.503875,85.9698187 105.183654,86.396892 104.877948,86.8578745 C104.460663,87.5818828 104.134093,88.3480486 103.844715,89.1591212 C103.424709,90.6254671 103.139867,92.1092259 102.950274,93.6516385 C102.868632,94.5864341 102.816925,95.5175637 102.774289,96.4578581 C102.728932,97.3926536 102.176483,98.1789816 101.388178,98.1789816 C100.665187,98.1789816 99.9567104,97.3926536 100.002067,96.4578581 C100.106389,94.1611938 100.28056,91.8947728 100.640694,89.6420988 C100.789465,88.6761435 101.018972,87.7294339 101.298371,86.8129676 C101.627663,85.7416186 102.046762,84.7939926 102.590139,83.8720276 C103.422894,82.4606696 104.530513,81.4085664 105.826817,80.7331308 C106.880007,80.1823346 108.026633,79.8973136 109.168723,80.0338671 C109.732057,80.1081008 110.276342,80.2318238 110.804297,80.497599 C111.488281,80.8449397 112.096973,81.3031728 112.664843,81.8970429 C114.101753,83.4018804 114.78483,85.5372467 115.398057,87.6790282 C115.682899,88.6761435 115.872492,89.7282467 116.06662,90.7501065 C116.240791,91.6913173 116.395912,92.6316116 116.524726,93.5847365 C116.614533,94.248258 116.699804,94.9099466 116.779632,95.578967 C116.873975,96.4019536 117.033632,97.2753459 116.993717,98.1111631 C116.964689,98.6179689 116.849482,99.064288 116.550126,99.4290415 C116.292498,99.7553035 115.870677,100 115.471536,100 C115.34,100 115.209372,99.972506 115.088722,99.9129357" id="Fill-27" fill="#020303"></path>
                <path d="M103.257909,121.126571 C99.5855502,122.734857 95.7406332,123.981484 92.4923255,123.999749 C89.0466777,124.018015 85.5496298,123.037153 82.6574518,121.162189 C80.237972,119.594088 78.2039934,117.342853 76.800585,114.840466 C76.1452327,113.673294 75.6688632,112.539001 74.9116284,111.465897 C74.440766,110.799203 73.2704941,109.276765 74.6527918,108.725144 C75.0896933,108.549794 75.6046129,108.758022 75.9249462,109.101415 C76.2443616,109.443895 76.4114122,109.896882 76.5720377,110.337996 C77.3237654,112.409315 79.7019415,113.92262 81.5110443,115.031341 C82.4481797,115.605794 83.3954116,116.185727 84.4436081,116.521814 C87.0778673,117.368425 90.3243393,117.082568 93.0467131,117.441487 C96.0609665,117.83785 99.5056964,117.056996 102.436424,116.410394 C105.55256,115.723608 108.621885,114.717173 111.490199,113.317115 C112.751339,112.701565 113.980354,112.011125 115.127679,111.203786 C116.432877,110.284113 117.025815,108.874009 118.287873,108 C119.053368,108.217361 119.179115,109.31695 118.773421,110.000083 C118.094204,111.145336 116.8349,112.493337 115.93815,113.51621 C114.842225,114.76649 113.493888,115.797583 112.048258,116.617709 C109.605832,118.004067 106.498874,119.705508 103.257909,121.126571" id="Fill-29" fill="#020303"></path>
            </g>
        </g>
    </g>
</svg>